<?xml version="1.0" encoding="UTF-8"?>
<svg xmlns="http://www.w3.org/2000/svg" viewBox="0 0 81.85 115.85">
  <defs>
    <style>
      .cls-1 {
        fill: #e71d2f;
      }
    </style>
  </defs>
  <g id="Layer_1" data-name="Layer 1"/>
  <g id="Layer_2" data-name="Layer 2">
    <g id="Layer_1-2" data-name="Layer 1">
      <path class="cls-1" d="M75.28,79.88c-.97-.05-2,.12-3.08,.31-.53,.09-1.06,.18-1.61,.25l-.77,.1-.29-.72c-.96-2.44-2.72-3.97-5.23-4.57-2.46-.58-4.72,.08-6.91,2.03l-.66,.59-2.94-2.61,1.58-.85c.25-.13,.46-.25,.69-.36,10.23-5,17.77-14.11,20.69-25.01,2.92-10.91,.94-22.58-5.43-32.04-.42-.62-.77-1.4-.21-2.53,1.47-2.97,1.25-5.75-.64-8.27-1.88-2.5-4.46-3.51-7.66-2.98-3.61,.59-6.39,4-6.33,7.76,.07,3.82,3.06,7.18,6.68,7.48,1.03,.09,2.13-.04,3.29-.18,.58-.07,1.16-.14,1.76-.18l.56-.04,.33,.45c6.92,9.49,8.34,22.93,3.63,34.24-4.62,11.1-13.13,18.39-25.28,21.65l-1.26,.34v-4.4c.01-2.74,.02-5.33-.03-7.96-.02-1.39,.51-2.23,1.8-2.78,9.14-3.92,14.66-13.54,13.44-23.39-.78-6.23-3.98-11.71-9.01-15.42-4.99-3.68-11.1-5.1-17.19-4.02-9.77,1.74-17.21,9.54-18.52,19.41-1.29,9.66,4.12,19.23,13.13,23.26,1.65,.74,1.87,1.86,1.87,2.96-.02,7.53-.02,15.05-.02,22.58v8.03c0,.27-.02,.54-.04,.91l-.19,3.86-1.69-2.72c-.36-.58-.7-1.13-1.02-1.67-.66-1.08-1.26-2.07-1.91-3.04-1.81-2.73-4.96-3.98-8.03-3.19-2.33,.6-4.14,2.07-5.09,4.14-.97,2.1-.89,4.58,.2,6.82,3.11,6.35,5.67,11.5,8.06,16.24,.2,.4,.57,.79,.96,1.2,.1,.11,.2,.21,.3,.32h.79c1.03-.91,1.05-1.17,.24-2.8l-2.08-4.2c-1.98-3.99-3.95-7.98-5.91-11.98-.72-1.46-.78-3.08-.18-4.43,.58-1.31,1.7-2.26,3.15-2.68,2.18-.63,4.33,.28,5.62,2.38,1.44,2.33,2.86,4.67,4.29,7.01l2.31,3.78c.07,.12,.14,.25,.21,.38,.06,.11,.15,.29,.19,.34l.11,.05c.33,.18,1.04,.54,1.25,.52,.17-.04,.6-.33,1.14-1.15,.05-.11,.04-.52,.03-.76,0-.13,0-.25,0-.38v-22.66c0-9.44,0-18.88,.01-28.33,0-.69,0-1.54,.27-2.35,.7-2.09,2.65-3.26,4.98-2.98,2.05,.25,3.74,2.04,3.93,4.17,.03,.31,.03,.62,.02,.94v42.39c0,.23,0,.46,0,.68,.04,.86,.52,1.38,1.31,1.38,.81,0,1.28-.49,1.29-1.34,.02-2.66,.02-5.33,.02-7.99v-3.17c0-1.85,.71-3.25,2.1-4.18,1.32-.88,2.98-1.03,4.42-.38,1.44,.65,2.43,1.97,2.65,3.54,.08,.61,.09,1.2,.09,1.78,0,1.53,0,2.99,0,4.44,0,2.11,0,4.22,0,6.34,0,1.83,.99,1.83,1.31,1.83h0c1.16,0,1.34-1.15,1.35-1.83,0-.42,0-.84,0-1.26v-3.67c0-2.34-.01-4.69,0-7.03,.02-2.35,1.77-4.26,4.15-4.53,2.16-.25,4.32,1.26,4.88,3.44,.14,.55,.14,1.1,.14,1.58,0,2.75,0,5.47,0,8.18v3.4c0,.19,0,.38,0,.56,.07,.76,.64,1.34,1.32,1.34h.01c.71,0,1.25-.57,1.27-1.32,.03-1.36,.03-2.72,.03-4.08,0-1.17,0-2.34,.01-3.5,.04-2.77,1.84-4.77,4.38-4.86,1.29-.06,2.52,.38,3.4,1.22,.92,.87,1.45,2.14,1.47,3.57,.03,1.75,.02,3.51,.02,5.26v7.23c0,4.55,0,9.25-.03,13.88,0,1.09,.21,1.74,.78,2.23h.97c.66-.46,.91-.86,.9-1.45,0-3.25,0-6.49,0-9.74,0-5.9,.01-12-.03-17.99-.03-3.57-2.96-6.61-6.53-6.79Zm-11.01-63.97c-2.85,0-5.09-2.22-5.12-5.05-.02-2.84,2.2-5.09,5.06-5.12,1.38,0,2.72,.5,3.68,1.46,.96,.95,1.49,2.25,1.48,3.66-.01,2.83-2.25,5.05-5.1,5.05Zm-19.55,26.93c-.37,.51-1.49,1.25-2.35,.85-2.83-1.32-4.91-.89-7.16,.17l-.67,.31-.5-.54c-2.53-2.76-2.55-6.72-.04-9.42,2.45-2.63,6.57-2.93,9.38-.67,2.84,2.28,3.43,6.37,1.33,9.31Zm1.84,1.95c2.55-3.17,2.78-7.48,.58-10.97-2.11-3.35-6.22-5.1-9.98-4.27-4.08,.9-7.12,4.17-7.59,8.14-.32,2.78,.43,5.3,2.24,7.49,.15,.18,.87,1.13,.5,1.99-.67,1.53-.66,3.17-.65,4.92,0,.39,0,.77,0,1.16,0,.53,0,1.06,0,1.6v2.12l-1.27-.36c-6.61-1.87-12.12-11.68-11.12-19.79,1.26-10.2,9.26-17.49,19.46-17.73,9.81-.22,18.2,6.76,19.94,16.62,1.68,9.57-4.32,18.22-11.09,21.05l-1.39,.58v-3.12c.01-1.24,.02-2.44-.01-3.64v-.36c-.02-.72-.04-1.46-.26-1.98-.68-1.58-.02-2.6,.65-3.44Z"/>
      <path class="cls-1" d="M19.19,61.42c-2.48-2.31-5.39-2.76-8.93-1.37l-.77,.3-.44-.7C1.41,47.56,.49,35.29,6.33,23.2,12.26,10.92,22.44,3.99,36.58,2.61c1.4-.14,1.57-.75,1.55-1.4-.01-.28-.09-.67-.39-.93-.22-.19-.52-.28-.9-.28-.09,0-.18,0-.28,.02l-.27,.03c-2.39,.27-4.87,.56-7.19,1.15C16.85,4.34,7.2,13.03,2.63,25.03-1.94,37.05-.51,49.99,6.57,60.51c.76,1.13,.83,2.07,.26,3.23-1.73,3.55-.49,7.79,2.89,9.87,3.41,2.1,7.81,1.32,10.24-1.83,2.46-3.19,2.13-7.65-.77-10.36Zm-1.74,9.22c-.96,.95-2.24,1.47-3.63,1.47h-.05c-2.84-.03-5.06-2.26-5.06-5.09,0-1.37,.53-2.65,1.49-3.6,.98-.97,2.28-1.47,3.71-1.49,2.83,.02,5.04,2.26,5.04,5.09,0,1.39-.53,2.67-1.49,3.62Z"/>
      <path class="cls-1" d="M47.19,3.44c.36,0,.64-.12,.89-.37,.26-.26,.41-.61,.41-.96h0c0-.37-.14-.7-.39-.95-.24-.24-.56-.36-.89-.36h-.02c-.69,.01-1.29,.6-1.31,1.28,0,.33,.13,.67,.39,.93,.25,.27,.59,.42,.92,.43Z"/>
    </g>
  </g>
</svg>