<?xml version="1.0" encoding="UTF-8"?>
<svg xmlns="http://www.w3.org/2000/svg" viewBox="0 0 185.21 115.03">
  <defs>
    <style>
      .cls-1 {
        fill: #e71d2f;
      }
    </style>
  </defs>
  <g id="Layer_1" data-name="Layer 1"/>
  <g id="Layer_2" data-name="Layer 2">
    <g id="Layer_1-2" data-name="Layer 1">
      <path class="cls-1" d="M183.36,59c-2.31-7.43-6.34-14.06-12.32-20.28-7.33-7.63-16.26-13.42-26.54-17.23-4.67-1.73-9.09-2.89-13.5-3.55-.88-.13-1.76-.23-2.66-.33l-2.6-.3v-4.7c0-2.31-.01-4.62-.02-6.94,0-.81-.24-1.61-.73-2.44-1.3-2.21-3.18-3.24-5.92-3.24H31.62c-.65,.01-1.34,.06-2.03,.15-2.53,.33-4.93,2.82-5.02,5.22-.09,2.34-.07,4.66-.03,7.03,0,.49,.36,.8,.52,.91,.35,.26,.78,.34,1.15,.23,.68-.21,1.01-.64,1.02-1.36,.02-1.07,.01-2.14,.01-3.22,0-.81,0-1.61,0-2.42,.02-2.38,1.39-3.75,3.77-3.77H119.07c.33,0,.65,0,.97,.04,1.49,.18,2.68,1.35,2.9,2.83,.07,.46,.08,.92,.08,1.26V27.33c0,7.7,0,15.41,.01,23.11,0,1.12,.03,2.43,.2,3.7,.77,5.63,3.4,10.25,7.84,13.73,3.82,3,8.18,4.45,13.44,4.45,8.44-.01,16.87,0,25.31,0h12.59v2.34c0,1.36,0,2.73,.02,4.1,.02,3.06,.05,6.23-.1,9.36-.27,5.89-5.38,10.89-11.38,11.15-1.96,.08-3.94,.08-5.85,.08-.83,0-1.67,0-2.5,0h-.01c-.24,0-.43-.04-.54-.07l-.94-.21-.27-.97c-1.29-6.7-6.9-11.55-13.65-11.8-3.15-.12-6.03,.72-8.6,2.48-3.21,2.19-5.26,5.32-6.09,9.29l-.24,1.17h-54.76l-.24-1.18c-1.39-6.77-6.86-11.49-13.62-11.77-7.13-.3-13.46,4.76-14.74,11.73l-.18,.99-.99,.19c-.08,.02-.26,.06-.48,.06h-3.14c-4.5,0-8.99,0-13.48-.03-1.01,0-1.99-.65-2.51-1.29-.68-.83-.77-1.96-.77-2.41-.03-3.72-.02-7.43-.02-11.15v-1.36c0-.82-.35-1.12-.69-1.3-.47-.26-.96-.27-1.36-.04-.44,.26-.69,.76-.69,1.37-.02,4.73-.03,8.69,.02,12.68,0,.83,.14,1.6,.37,2.23,.98,2.62,3.14,4.06,6.09,4.07,3.66,0,7.32,0,10.97,0h6.63l.23,1.2c1.24,6.55,6.93,11.5,13.54,11.77,3.06,.13,5.89-.64,8.41-2.27,3.37-2.19,5.53-5.38,6.4-9.49l.25-1.17h54.77l.24,1.18c1.34,6.58,6.66,11.37,12.94,11.66,7.99,.37,13.09-3.49,15.53-11.8l.31-1.06h8.52c2.88,0,5.3-.58,7.39-1.77,5.32-3.03,7.93-7.52,8-13.74,.05-4.83,.04-9.6,0-15.26-.02-4.36-.63-8.5-1.81-12.29ZM63.07,112.27h0c-3.13,0-6.06-1.21-8.23-3.41-2.17-2.2-3.37-5.14-3.37-8.3,0-3.06,1.21-5.95,3.38-8.12,2.2-2.19,5.13-3.4,8.24-3.4h.03c6.37,.02,11.54,5.22,11.54,11.6,0,6.52-5.1,11.62-11.59,11.62Zm91.8-3.39c-2.19,2.19-5.11,3.39-8.23,3.39h0c-6.2,0-11.41-4.98-11.61-11.1-.11-3.24,1.08-6.31,3.34-8.63,2.2-2.25,5.1-3.49,8.19-3.49,.03,0,.05,0,.08,0,3.12,0,6.04,1.2,8.23,3.39,2.19,2.19,3.39,5.1,3.39,8.21,0,3.12-1.21,6.04-3.4,8.23Zm15.06-39.34c-8.58,0-17.16,0-25.75,0h-.02c-4.97,0-9.23-1.65-12.67-4.9-3.46-3.28-5.37-7.32-5.66-11.99-.07-1.04-.1-2.11-.1-3.16,0-6.89,0-13.78,0-20.66v-8.8l2.88,.37c.88,.11,1.74,.21,2.59,.35,8.92,1.46,17.5,4.76,25.49,9.81,8.04,5.08,14.16,10.97,18.7,18.02,3.87,6,6.07,11.93,6.73,18.12,.02,.23,.06,.46,.09,.72l.28,2.12h-12.58Z"/>
      <path class="cls-1" d="M65.91,23.74c.15,0,.3,0,.45,0,.88-.1,1.14-.49,1.29-.89,.21-.56,.11-.99-.31-1.45-.24-.25-.58-.42-1.47-.42H1.75c-.14,0-.28,0-.42,.01-.56,.06-.99,.35-1.21,.81-.2,.43-.15,.93,.14,1.36,.21,.31,.54,.59,1.51,.59h0c8.43,0,16.86,0,25.28,0h38.85Z"/>
      <path class="cls-1" d="M75.32,72c.16-.59,0-1.11-.44-1.47-.29-.23-.64-.32-1.23-.32h0c-7.95,0-15.9,0-23.85,0H19.17c-.79,0-1.57,0-2.36,0-1.33,0-2.65,0-3.98,.02-.54,0-.86,.33-1,.52-.26,.35-.33,.78-.2,1.2,.1,.34,.3,.98,1.71,.99h60.27c.2,0,.41,0,.62-.03,.47-.05,.98-.48,1.1-.92Z"/>
      <path class="cls-1" d="M39.6,47.55c-.07,.46,.03,.87,.28,1.15,.25,.29,.66,.45,1.13,.46,4.82,0,9.63,0,14.45,0h19.42c2.28,0,4.57,0,6.86-.01,.58,0,.9-.34,1.04-.53,.25-.36,.31-.81,.16-1.25-.12-.34-.31-.92-1.82-.92-13.21,0-26.41,0-39.62,0-.33,0-.6,.02-.84,.05-.53,.07-.98,.52-1.06,1.05Z"/>
      <path class="cls-1" d="M168.65,86.13c1.2,.78,2.6,1.12,4.68,1.13,.17-.01,.35-.02,.52-.03,.34-.02,.68-.03,1.01-.09,.66-.11,1.15-.73,1.1-1.37-.06-.73-.63-1.27-1.34-1.29-.38,0-.76,0-1.14,0-.33,0-.67,0-1,0-1.98-.03-2.9-.96-3.32-1.74-.46-.84-.61-1.78-.69-2.5-.09-.78-.6-1.31-1.29-1.35-.03,0-.06,0-.09,0-.69,0-1.21,.45-1.33,1.16-.35,2.04,.98,4.83,2.9,6.08Z"/>
    </g>
  </g>
</svg>