<?xml version="1.0" encoding="UTF-8"?>
<svg xmlns="http://www.w3.org/2000/svg" viewBox="0 0 114.89 114.91">
  <defs>
    <style>
      .cls-1 {
        fill: #e71d2f;
      }
    </style>
  </defs>
  <g id="Layer_1" data-name="Layer 1"/>
  <g id="Layer_2" data-name="Layer 2">
    <g id="Layer_1-2" data-name="Layer 1">
      <path class="cls-1" d="M114.51,12.74c-.25-.21-.73-.24-1.35-.1-1.23,.29-2.54,.61-3.79,.99-6.5,1.97-12.69,2.77-18.93,2.45-2.31-.12-4.68-.08-6.97-.05-.82,.01-1.65,.02-2.47,.03-2.75,.02-5.1,1.08-6.97,3.17-1.32,1.48-1.86,3.4-2.3,5.24-.83,3.49-4.01,5.7-7.57,5.24l-1.08-.14v-1.09c0-.35,0-.71,.01-1.07,.01-.78,.02-1.59-.03-2.36-.1-1.55,.73-2.34,1.47-2.85,3.16-2.18,5.03-5.68,5.14-9.62,.11-3.97-1.58-7.6-4.64-9.97-1.88-1.46-4.04-2.14-5.91-2.62h-3.36c-1.87,.47-4.03,1.16-5.91,2.61-3.06,2.37-4.75,6.01-4.64,9.98,.11,3.93,1.98,7.43,5.12,9.59,1.11,.76,1.57,1.67,1.48,2.95-.05,.75-.04,1.52-.03,2.26v2.12l-1.04,.16c-3.51,.54-6.77-1.69-7.6-5.2-.54-2.26-1.17-4.06-2.5-5.47-1.88-1.99-4.12-2.95-6.85-2.96-1.06,0-2.12-.01-3.19-.02h-.45c-2.78-.03-6.23-.07-9.49,.05-4.92,.17-9.68-1.06-13.89-2.13l-1.18-.3c-.29-.07-.58-.14-.87-.21l-.19-.04c-.76-.18-1.63-.38-2.46-.65-1.14-.37-1.69-.12-2.12,.4l.02,2.41c.07,.17,.15,.39,.18,.64,.42,3.01,1.61,5.73,3.53,8.09,.79,.97,1.2,2.01,1.29,3.27,.22,2.99,1.21,5.65,2.94,7.89,.77,.99,1.64,1.96,2.48,2.9l-.3,.43,.38-.34c.91,1.02,1.85,2.07,2.71,3.19,7.93,10.39,21.31,13.35,32.53,7.21,.91-.5,1.78-1.09,2.71-1.72,.45-.31,.89-.61,1.35-.91l1.92-1.25v11.48h-2.36c-.28,0-.57,0-.85,0-5.28,.11-9.26,2.44-11.84,6.93-2.38,4.15-2.44,8.54-.17,13.06,.3,.61,.84,.85,1.36,.62,.76-.34,.71-1,.53-1.5-.05-.14-.11-.27-.17-.4-.11-.24-.2-.43-.27-.63-1.59-4.14-1.11-7.97,1.43-11.36,2.53-3.38,6.18-4.87,11.16-4.57l1.16,.07v22.81h-1.24c-.45,0-.89,0-1.33-.02h-.19c-1.09-.03-2.12-.06-3.1,.05l-.18,.02c-1.55,.16-3.15,.33-4.45,.89-4.14,1.79-6.55,6.39-5.6,10.7,1.02,4.63,4.88,7.79,9.61,7.85,1.76,.02,3.49,.05,5.21-.01,1.71-.05,2.25,1.01,2.51,1.92,1.1,3.81,2.3,7.63,3.43,11.2,.19,.61,.52,.88,1.09,.88,.38,0,.79-.07,1.07-.85l.34-.95c.67-1.86,1.37-3.78,1.95-5.69,.38-1.25,.69-2.55,1-3.8,.14-.58,.28-1.16,.43-1.74l.23-.93h1.79c.26-.01,.52-.02,.77-.02,.33,0,.65,0,.97,.02,1.97,.11,3.51,.89,4.59,2.31,1.38,1.82,1.64,3.89,.73,6-.93,2.18-2.76,3.38-5.42,3.57-.73,.05-1.19,.47-1.17,1.06,.02,.64,.5,1.03,1.3,1.03,3.7,0,7.26-2.96,7.79-6.46,.65-4.21-1.6-8.06-5.34-9.16-.93-.27-1.96-.38-2.96-.49-.5-.05-.98-.11-1.45-.17l-1.06-.15v-14.84l1.29,.06c5.43,.26,8.93-1.99,10.92-3.92,2.67-2.59,4.23-6.21,4.19-9.69-.05-3.46-1.14-6.45-3.24-8.89-2.97-3.44-6.93-5.06-11.74-4.79l-1.31,.07v-11.75l2.26,1.59c.18,.12,.33,.23,.48,.34,5.9,4.55,12.56,6.21,19.8,4.94,5.73-1.01,10.58-3.76,14.4-8.17,.51-.59,1.01-1.24,1.45-1.81,.81-1.06,1.65-2.16,2.67-3.11,3.44-3.21,5.31-6.89,5.72-11.26,.09-.93,.51-1.97,1.14-2.77,2.49-3.23,3.74-6.65,3.82-10.46,0-.36-.03-1.01-.37-1.29Zm-63.28,28.94c-4.59,5.2-11.06,8.19-17.73,8.19-5.06,0-9.88-1.67-13.93-4.82-.1-.08-.18-.16-.31-.31l-2.01-2.27h6.98c.35,0,.69,0,1.03,0,.6-.04,1.11-.52,1.1-1.04,0-.55-.49-1.01-1.11-1.04-.71-.03-1.43-.05-2.15-.07-1.21-.03-2.41-.06-3.61-.16-4.96-.43-10.2-4.7-11.45-9.34l-.56-2.08,2.08,.57c.53,.14,1.06,.31,1.59,.47,1.11,.34,2.24,.7,3.33,.82,2.51,.29,5.09,.31,7.5,.29,.34,0,.62-.11,.83-.32,.19-.19,.29-.46,.29-.74,0-.63-.51-1.04-1.33-1.07-.79-.03-1.58-.03-2.37-.03h-.21c-.86,0-1.74,0-2.57-.03-6.76-.28-12.39-4.97-14.01-11.68l-.48-1.98,1.98,.48c.42,.1,.84,.2,1.25,.3l.25,.06c1.05,.24,2.13,.5,3.2,.81,3.74,1.09,7.7,1.6,11.72,1.51,2.88-.06,5.8-.05,8.62-.03,1.22,0,2.45,.01,3.67,.01,4.73,0,7.11,1.89,8.21,6.51,.92,3.89,3.31,6.23,7.3,7.17,.44,.1,.95,.13,1.48,.17,.3,.02,.6,.04,.9,.06l1.12,.11v2.98c0,1.69,0,3.35-.01,5,0,.56-.22,1.13-.57,1.52Zm.65,57.01h-1.24c-.59,0-1.19,.02-1.8,.03h-.15c-.74,.03-1.39,.05-2.04,.05-1,0-1.82-.04-2.6-.14-3.9-.46-6.61-3.78-6.43-7.89,.16-3.76,3.16-6.79,6.97-7.03,1.37-.09,2.71-.07,4.13-.04,.63,0,1.27,.02,1.93,.02h1.24v15Zm6.78,8.5l-1.16,3.8-1.21-3.78c-2.42-7.58-2.49-15.18-2.36-22.32l.02-1.22h6.95l.03,1.21c.21,8.24-.1,15.19-2.27,22.32Zm-4.68-25.85V24.44h6.93v56.9h-6.93Zm3.5-59.01h-.08c-5.64-.05-10.06-4.52-10.05-10.16,0-5.52,4.53-10.03,10.08-10.06,2.58-.07,5.17,1.03,7.14,3,1.92,1.92,3.02,4.53,3,7.15-.01,2.69-1.09,5.22-3.03,7.14-1.91,1.89-4.42,2.93-7.06,2.93Zm6.81,36.22c4.78-.26,8.42,1.35,10.83,4.8,2.82,4.02,2.98,8.35,.49,12.52-2.2,3.68-5.65,5.55-10.24,5.55-.36,0-.72-.01-1.09-.03l-1.16-.07v-22.71l1.17-.06ZM112.3,16.99c-1.56,6.61-7.26,11.41-13.88,11.69-.9,.04-1.81,.04-2.71,.04-.66,0-1.28,0-1.9,.02-.51,.01-.89,.05-1.22,.13-.47,.11-.77,.48-.78,.95,0,.42,.26,.9,.63,.93,2.01,.16,3.82,.28,5.59,.08,1.73-.19,3.47-.55,5.16-.91,.76-.16,1.51-.31,2.26-.45l2.2-.42-.82,2.09c-1.74,4.43-4.92,7.35-9.22,8.46-1.9,.49-3.88,.57-5.79,.65-.65,.03-1.29,.05-1.92,.09-.56,.04-1.03,.27-1.24,.61-.15,.24-.16,.52-.02,.83,.2,.48,.53,.68,1.12,.68,1.18,0,2.36,0,3.64,0h4.92l-2.55,2.18c-2.1,1.79-4.29,3.04-6.9,3.93-2.45,.84-5,1.26-7.57,1.26h0c-6.73,0-13.13-2.94-17.57-8.07-.4-.47-.64-1.05-.64-1.59-.02-1.68-.02-3.37-.02-5v-2.58l.93-.24c.53-.14,1.07-.26,1.59-.37,1.16-.26,2.21-.49,3.15-.88,2.66-1.12,4.39-3.24,5.12-6.3l.22-.89c.87-3.61,3.49-5.7,7.18-5.73l2.6-.03c2.7-.04,6.07-.08,9.27,.05,4.77,.21,9.7-.48,15.51-2.16,.46-.13,.92-.24,1.42-.35l2.7-.65-.46,1.96Z"/>
    </g>
  </g>
</svg>