<?xml version="1.0" encoding="UTF-8"?>
<svg id="Layer_1" data-name="Layer 1" xmlns="http://www.w3.org/2000/svg" viewBox="0 0 1193.96 681.39">
  <defs>
    <style>
      .cls-1, .cls-2, .cls-3, .cls-4 {
        fill: #fff;
      }

      .cls-5 {
        fill: #24aae2;
      }

      .cls-6 {
        fill: #d5df28;
      }

      .cls-7 {
        fill: #f79424;
      }

      .cls-8 {
        fill: #bd202c;
      }

      .cls-9 {
        stroke: #f3f6f6;
      }

      .cls-9, .cls-10 {
        fill: none;
        stroke-miterlimit: 10;
      }

      .cls-11 {
        fill: #009648;
      }

      .cls-12 {
        fill: #152d53;
      }

      .cls-13 {
        font-family: Metropolis-Thin, Metropolis;
      }

      .cls-2 {
        font-size: 14.68px;
      }

      .cls-2, .cls-3 {
        font-family: Metropolis-Regular, Metropolis;
      }

      .cls-3 {
        font-size: 18.36px;
      }

      .cls-10 {
        stroke: #152d53;
        stroke-width: .88px;
      }

      .cls-4 {
        font-size: 63.76px;
      }

      .cls-14 {
        font-family: Metropolis-Light, Metropolis;
      }
    </style>
  </defs>
  <g>
    <line class="cls-9" x1="652.8" y1="207.15" x2="935.67" y2="207.15"/>
    <line class="cls-9" x1="652.8" y1="265.7" x2="935.67" y2="265.7"/>
    <text class="cls-3" transform="translate(652.8 186.4)"><tspan x="0" y="0">Product Evaluation</tspan><tspan x="0" y="57.38">Develop Roadmap</tspan><tspan x="0" y="114.75">Templates</tspan></text>
  </g>
  <g>
    <circle class="cls-10" cx="229.01" cy="340.87" r="207.12"/>
    <circle class="cls-12" cx="229.01" cy="340.87" r="198.5" transform="translate(-173.95 261.78) rotate(-45)"/>
    <g>
      <text class="cls-4" transform="translate(80.54 386.91)"><tspan class="cls-14" x="0" y="0">smart</tspan><tspan class="cls-13" x="157.69" y="0">chain</tspan></text>
      <text class="cls-2" transform="translate(159.22 408.12) scale(1.04 1)"><tspan x="0" y="0">Smart Insights. Better Results</tspan></text>
      <g>
        <path class="cls-5" d="M245.7,281.48c1.35-9.93,.43-19.83-2.55-27.29-2.7-6.77-6.9-11.06-11.52-11.77-.5-.07-.97-.1-1.46-.1-3.91,0-8.14,2.4-12.02,6.78l-3.01-1.5c2.07-2.46,4.27-4.42,6.57-5.85,2.82-1.77,5.66-2.66,8.46-2.66,.67,0,1.3,.05,1.92,.14,5.88,.88,10.88,5.76,14.07,13.75,3.22,8.05,4.2,18.21,2.78,28.73l-3.23-.23Z"/>
        <path class="cls-8" d="M236.14,298c9.8-1.99,18.84-6.13,24.92-11.43,5.49-4.79,8.14-10.18,7.28-14.78-.11-.51-.23-.97-.38-1.39-1.3-3.7-4.96-6.9-10.38-9.11l.42-3.33c3,1.14,5.59,2.57,7.71,4.26,2.59,2.07,4.38,4.46,5.31,7.1,.21,.6,.38,1.22,.5,1.86,1.11,5.84-1.84,12.17-8.32,17.82-6.53,5.7-15.8,9.99-26.19,12.13l-.85-3.13Z"/>
        <path class="cls-7" d="M247.31,320.76c-10.79,0-23.78-9.79-32.58-24.46l2.66-1.84c5.13,8.6,12.04,15.75,19.05,19.72,3.85,2.19,7.61,3.34,10.87,3.34,2.08,0,3.92-.46,5.49-1.37,.37-.21,.76-.48,1.18-.82,3.07-2.45,4.87-6.96,5.16-12.81l3.29-.71c-.18,7.05-2.33,12.62-6.17,15.85l-.25,.19c-.51,.41-1.04,.77-1.59,1.09-2.08,1.2-4.46,1.81-7.1,1.81Z"/>
        <path class="cls-6" d="M213.79,321.99c-3.31,0-6.19-.75-8.56-2.23l-.31-.2c-.46-.31-.86-.61-1.23-.94-4.54-3.88-6.19-10.67-4.66-19.13,1.54-8.53,6.1-17.66,12.87-25.83l2.63,1.91c-6.4,7.66-10.88,16.55-12.31,24.49-1.29,7.18,0,13.05,3.55,16.09,.44,.36,.81,.64,1.18,.86,1.82,1.14,4.12,1.72,6.81,1.72,2.16,0,4.5-.37,6.98-1.11l1.75,2.86c-3.06,.99-5.98,1.49-8.7,1.49Z"/>
        <path class="cls-11" d="M191.63,289.02c-3.5-4.61-5.34-9.25-5.34-13.52,0-1.02,.11-2.04,.33-3.01,.13-.62,.32-1.24,.56-1.87,2.73-7.02,11.51-11.21,23.47-11.21,6.91,0,14.38,1.43,21.66,4.13l-.93,3.1c-6.9-2.58-14.25-3.99-20.79-3.99-2.24,0-4.4,.16-6.4,.49-7.21,1.16-12.31,4.32-14,8.68-.17,.43-.31,.9-.42,1.38-.86,3.82,.55,8.47,3.98,13.23l-2.12,2.61Z"/>
      </g>
    </g>
    <circle class="cls-5" cx="67.58" cy="207.58" r="59.26" transform="translate(-126.99 108.59) rotate(-45)"/>
    <circle class="cls-8" cx="350.01" cy="171.33" r="52.4"/>
    <circle class="cls-7" cx="158.02" cy="536.99" r="54.61"/>
    <g>
      <path class="cls-1" d="M50.77,216.1c-4.85-5.21-2.82-12.17,.83-15.32,3.74-3.23,9.67-3.32,13.44-.09,2.3,1.97,3.56,4.5,3.8,7.5,.23,3.03-.76,5.65-2.9,7.91,2.33,1.01,4.34,2.37,6.04,4.03,.84-.87,1.56-1.81,2.46-2.53,5.82-4.68,14.53-1.25,15.63,6.12,.84,5.62-2.89,10.47-8.53,11.15-1.64,.2-3.19-.05-4.71-.62-.2-.08-.52-.05-.7,.07-.68,.43-1.4,.66-2.21,.66-10.33,0-20.66,0-30.99,0-2.49,0-4.15-1.99-3.66-4.44,1.33-6.6,5.02-11.36,11.12-14.24,.11-.05,.22-.11,.38-.19Zm23.68,16.85c-.12-.15-.16-.22-.21-.27-3.06-2.76-4.1-6.13-3.14-10.14,.04-.18-.05-.48-.19-.62-1.76-1.84-3.83-3.22-6.2-4.16-.38-.15-.66-.12-1.02,.07-3.54,1.96-7.09,1.95-10.62,0-.36-.2-.64-.24-1.02-.08-5.84,2.43-9.45,6.72-10.76,12.92-.34,1.59,.3,2.33,1.93,2.33,10.1,0,20.2,0,30.3,0,.28,0,.55-.03,.91-.05Zm-16.06-15.69c4.84,0,8.5-3.67,8.51-8.53,0-4.61-3.89-8.46-8.53-8.44-4.64,.03-8.5,3.87-8.48,8.43,.02,4.87,3.68,8.54,8.51,8.53Zm22.1,15.72c4.21,0,7.75-3.51,7.75-7.67,0-4.43-3.33-7.77-7.77-7.76-4.44,0-7.76,3.34-7.75,7.78,.02,4.17,3.56,7.67,7.76,7.66Z"/>
      <path class="cls-1" d="M80.29,179.64c3.33,0,6.67,0,10,0,2.16,0,3.76,1.48,3.78,3.63,.05,3.77,.05,7.53,0,11.3-.02,2.17-1.62,3.68-3.81,3.69-3,.02-6.01,.03-9.01,0-1.2-.01-2.13,.41-2.93,1.29-1.75,1.94-3.54,3.85-5.31,5.77-.36,.39-.72,.77-1.32,.54-.64-.24-.7-.78-.7-1.37,0-1.75,0-3.5,0-5.25,0-.76-.16-.92-.93-.98-2.11-.18-3.55-1.64-3.57-3.75-.03-3.7-.03-7.41,0-11.12,.02-2.25,1.59-3.75,3.86-3.75,3.31,0,6.63,0,9.94,0Zm-7.26,22.52l.13,.06c1.17-1.27,2.37-2.5,3.49-3.81,1.31-1.54,2.94-2.21,4.94-2.18,2.86,.05,5.72,.02,8.58,0,1.29,0,1.92-.66,1.92-1.95,0-3.58,0-7.16,0-10.75,0-1.23-.67-1.93-1.89-1.93-6.61,0-13.21,0-19.82,0-1.23,0-1.9,.69-1.9,1.92,0,3.6,0,7.2,0,10.81,0,1.18,.56,1.78,1.73,1.89,1.84,.17,2.81,1.23,2.82,3.08,0,.95,0,1.89,0,2.84Z"/>
      <path class="cls-1" d="M79.49,229.96c-1.03-.45-1.64-1.24-1.92-2.29-.21-.78,.17-1.4,.87-1.48,.56-.07,.9,.25,1.09,.85,.12,.36,.33,.77,.63,.96,.21,.13,.72,.01,.93-.18,.2-.19,.34-.66,.24-.91-.1-.29-.46-.53-.77-.68-.28-.13-.65-.06-.96-.16-1.19-.39-1.89-1.23-2.05-2.46-.14-1.13,.27-2.1,1.24-2.7,.54-.34,.76-.67,.71-1.3-.05-.55,.37-.97,.88-1,.51-.03,.87,.22,1.04,.7,.06,.19,.05,.41,.04,.61-.03,.38,.05,.62,.45,.82,.89,.44,1.35,1.24,1.5,2.2,.1,.65-.23,1.17-.78,1.28-.61,.12-1.04-.22-1.19-.93-.15-.71-.55-1.03-1.14-.92-.5,.09-.82,.58-.7,1.12,.11,.49,.47,.69,.94,.74,1.57,.17,2.52,.96,2.83,2.37,.27,1.24-.33,2.44-1.58,3.19-.15,.09-.26,.32-.31,.5-.05,.17,0,.37-.01,.55-.03,.58-.43,1-.96,1.01-.54,.02-.98-.43-1.01-1.03-.01-.29,0-.57,0-.87Z"/>
      <path class="cls-1" d="M80.3,192.95c-2.71,0-5.43,0-8.14,0-.26,0-.54-.01-.79-.1-.43-.15-.66-.49-.64-.95,.02-.46,.26-.78,.71-.9,.23-.06,.49-.08,.73-.08,5.41,0,10.82,0,16.22,0,.2,0,.41,0,.61,.04,.53,.1,.84,.43,.84,.98,0,.55-.33,.87-.85,.98-.2,.04-.41,.03-.61,.03-2.69,0-5.39,0-8.08,0Z"/>
      <path class="cls-1" d="M80.25,186.93c-2.8,0-5.59,.02-8.39-.02-.34,0-.78-.26-.99-.54-.15-.21-.11-.71,.05-.95,.16-.24,.56-.44,.86-.44,5.68-.03,11.35-.02,17.03-.02,.63,0,1.04,.41,1.04,.98,0,.59-.42,.99-1.09,.99-2.84,0-5.68,0-8.51,0Z"/>
    </g>
    <g>
      <path class="cls-1" d="M352.02,142.67c1.01,.15,2.03,.25,3.03,.45,9.64,1.88,16.61,7.28,20.91,16.07,2.23,4.56,3.02,9.44,2.59,14.5-1.07,12.65-10.09,23.01-22.58,25.65-15.86,3.35-30.39-6.8-33.82-21.34-.32-1.37-.46-2.79-.68-4.18-.03-.16-.07-.32-.11-.49v-4.03c.07-.53,.15-1.06,.22-1.59,.1-.73,.54-1.14,1.22-1.09,.63,.04,1.04,.51,1.01,1.23-.05,1.04-.22,2.08-.2,3.12,.26,11.28,5.44,19.47,15.6,24.4,4.17,2.03,8.67,2.75,13.28,2.22,9.87-1.15,17.05-6.24,21.44-15.15,2.1-4.27,2.89-8.86,2.36-13.59-1.05-9.3-5.71-16.27-13.89-20.82-4.02-2.24-8.4-3.24-12.99-3.1-7.22,.22-13.38,2.93-18.43,8.11-.09,.09-.17,.19-.31,.35,.18,.03,.32,.06,.45,.06,.93,0,1.86,0,2.8,0,.79,.01,1.32,.49,1.31,1.15-.01,.65-.52,1.12-1.29,1.12-1.86,.01-3.73,.01-5.59,0-.87,0-1.3-.44-1.31-1.32-.01-1.85-.01-3.69,0-5.54,0-.82,.45-1.32,1.12-1.33,.69,0,1.14,.52,1.15,1.37,0,.82,0,1.63,0,2.57,.22-.19,.35-.3,.47-.42,4.53-4.47,9.95-7.19,16.25-8.13,.66-.1,1.32-.17,1.98-.25h4.03Z"/>
      <path class="cls-1" d="M350,189.78c-.52,0-1.04,0-1.57,0-1.45,0-2.38-.89-2.44-2.33-.08-1.85-1.87-3.09-3.59-2.47-.37,.13-.72,.38-1.03,.65-1.04,.89-2.28,.89-3.26-.07-.77-.76-1.54-1.52-2.29-2.29-1.01-1.03-1.04-2.24-.07-3.33,1.43-1.62,.69-4.09-1.36-4.54-.36-.08-.74-.06-1.1-.14-1.05-.24-1.72-1.1-1.73-2.18,0-1.14,0-2.28,0-3.41,0-1.31,.9-2.29,2.21-2.33,1.21-.04,2.08-.57,2.53-1.68,.45-1.1,.22-2.1-.6-2.99-.9-.98-.86-2.25,.08-3.21,.77-.79,1.55-1.56,2.33-2.33,1-.98,2.23-1,3.29-.06,1.62,1.44,4.07,.72,4.54-1.34,.08-.36,.06-.74,.14-1.1,.24-1.05,1.1-1.74,2.17-1.75,1.16,0,2.31,0,3.47,0,1.26,0,2.24,.91,2.29,2.19,.04,1.21,.56,2.08,1.67,2.54,1.12,.46,2.13,.21,3.03-.62,.96-.88,2.22-.82,3.17,.09,.75,.73,1.48,1.47,2.22,2.21,1.13,1.13,1.16,2.29,.11,3.5-1.35,1.56-.64,3.94,1.34,4.45,.21,.05,.44,.06,.66,.08,1.34,.08,2.25,1.02,2.25,2.36,0,1.1,0,2.2,0,3.3,0,1.34-.9,2.32-2.24,2.36-1.19,.04-2.04,.57-2.49,1.65-.46,1.1-.24,2.1,.57,2.99,.92,1.01,.88,2.27-.08,3.25-.74,.76-1.5,1.51-2.25,2.26-1.05,1.04-2.26,1.07-3.38,.09-1.59-1.4-3.97-.72-4.5,1.28-.06,.23-.06,.48-.08,.72-.09,1.3-1.04,2.2-2.34,2.21-.56,0-1.12,0-1.68,0Zm1.73-2.26c.12-2.15,1.09-3.73,3.07-4.56,2.01-.85,3.82-.39,5.39,.99,.82-.82,1.62-1.62,2.44-2.44-1.38-1.56-1.84-3.35-1.01-5.35,.83-2.02,2.41-3,4.58-3.12v-3.46c-2.15-.11-3.72-1.09-4.56-3.07-.85-2.01-.4-3.82,.99-5.4-.82-.82-1.62-1.62-2.44-2.44-1.56,1.38-3.35,1.83-5.35,1.01-2.01-.83-3-2.41-3.12-4.58h-3.45c-.12,2.14-1.09,3.72-3.07,4.56-2.01,.85-3.82,.4-5.39-.99-.82,.82-1.63,1.62-2.45,2.44,1.38,1.56,1.84,3.36,1.01,5.35-.83,2.01-2.41,2.99-4.57,3.12v3.46c2.15,.11,3.72,1.09,4.56,3.07,.85,2.01,.39,3.82-.99,5.38,.82,.83,1.62,1.64,2.43,2.46,1.57-1.4,3.36-1.84,5.36-1.02,2.02,.83,2.99,2.42,3.12,4.58h3.45Z"/>
      <path class="cls-1" d="M341.61,171.33c0-4.64,3.75-8.4,8.38-8.4,4.64,0,8.4,3.75,8.4,8.38,0,4.63-3.75,8.4-8.38,8.4-4.63,0-8.39-3.75-8.4-8.38Zm14.53,0c.01-3.34-2.75-6.12-6.11-6.16-3.35-.04-6.17,2.76-6.18,6.13-.01,3.34,2.75,6.12,6.11,6.16,3.35,.04,6.17-2.77,6.19-6.13Z"/>
    </g>
    <path class="cls-1" d="M163.74,513.87c.86,.39,1.79,.66,2.55,1.18,1.49,1.03,2.19,2.57,2.31,4.36,.01,.18,0,.35,0,.56,.28,.06,.53,.1,.78,.15,2.21,.52,3.81,1.81,4.78,3.85,.17,.35,.36,.41,.71,.46,1.32,.19,2.29-.26,3.15-1.28,.93-1.1,2.03-2.06,2.9-2.92-.02-.96-.18-1.76-.02-2.5,.39-1.74,2.19-2.69,3.88-2.18,1.65,.5,2.58,2.29,2.06,3.94-.53,1.65-2.3,2.55-3.96,1.98-.38-.13-.6-.08-.87,.2-1.16,1.2-2.37,2.34-3.52,3.55-.69,.73-1.48,1.1-2.49,1.01-.37-.03-.75,0-1.05,0-.21,1.17-.41,2.29-.61,3.46h.8c1.75,0,3.49,0,5.24,0,.33,0,.52-.07,.67-.4,.68-1.44,2.16-2.12,3.65-1.72,1.46,.39,2.38,1.76,2.26,3.36-.11,1.42-1.29,2.57-2.83,2.75-1.18,.14-2.41-.53-3-1.64-.09-.17-.18-.35-.28-.55-2.54,0-5.08-.01-7.62,.02-.28,0-.55,.29-.95,.52,1.22,.75,2.1,1.64,2.76,2.75,.06,.1,.26,.16,.4,.17,.34,.02,.68,.02,1.01,0,.7-.03,1.27,.24,1.75,.73,1.27,1.28,2.56,2.55,3.83,3.84,.26,.26,.46,.32,.82,.19,1.71-.6,3.5,.32,4.01,2.04,.49,1.65-.49,3.43-2.15,3.88-1.72,.47-3.51-.57-3.85-2.33-.11-.57,.09-1.2,.11-1.81,0-.2-.01-.47-.13-.6-1.26-1.29-2.53-2.58-3.84-3.83-.25-.24-.67-.3-1.1-.48,0,.33-.02,.51,0,.67,.41,3.04-.67,5.44-3.14,7.22-.29,.21-.35,.41-.3,.74,1.01,5.73-.67,10.58-5.05,14.36-1.19,1.02-1.26,2.05-1.13,3.32,.28,.05,.55,.08,.81,.16,.72,.22,1.16,.78,1.17,1.54,.03,.99,.03,1.99,0,2.98-.03,.96-.72,1.63-1.67,1.67-.49,.02-.98,0-1.54,0,0,.73,0,1.4,0,2.07-.02,2.12-1.44,3.54-3.56,3.54-2.34,0-4.69,0-7.03,0-2.01,0-3.45-1.43-3.48-3.43-.01-.69,0-1.39,0-2.17-.44,0-.85,0-1.26,0-1.32,0-1.96-.65-1.97-1.98,0-.73,0-1.47,0-2.2,0-1.45,.53-2.02,1.96-2.13,.34-1.31,.13-1.87-.89-2.64-3.49-2.62-5.53-6.09-6.07-10.44-.21-1.71-.08-3.4,.26-5.08,.03-.17-.02-.44-.13-.54-2.25-1.87-3.17-4.24-2.73-7.14,.01-.1,.02-.19,.02-.3-.52-.14-.9-.01-1.28,.38-1.2,1.24-2.43,2.45-3.66,3.67-.22,.22-.29,.38-.17,.71,.63,1.75-.34,3.63-2.08,4.1-1.74,.46-3.54-.65-3.89-2.41-.36-1.8,.92-3.52,2.8-3.71,.4-.04,.85,.02,1.22,.17,.43,.18,.67,.05,.96-.25,1.09-1.13,2.25-2.19,3.31-3.34,.77-.84,1.63-1.3,2.78-1.14,.49,.07,.78-.12,1.1-.54,.66-.87,1.47-1.63,2.25-2.46-.2-.36-.59-.48-1.12-.47-2.24,.03-4.49,.02-6.73,0-.37,0-.54,.1-.71,.44-.66,1.39-2.18,2.07-3.63,1.67-1.49-.41-2.41-1.81-2.26-3.42,.13-1.38,1.37-2.56,2.83-2.7,1.25-.13,2.47,.61,3.1,1.81,.09,.18,.34,.4,.52,.4,2.02,.03,4.05,.02,6.08,.01,.05,0,.11-.02,.1-.02-.2-1.11-.4-2.22-.62-3.43-.36,0-.85-.02-1.33,0-.81,.04-1.45-.26-2.02-.84-1.22-1.25-2.47-2.47-3.7-3.72-.27-.27-.48-.35-.87-.22-1.71,.6-3.49-.34-3.99-2.08-.48-1.66,.51-3.41,2.18-3.86,1.73-.46,3.51,.59,3.83,2.36,.12,.67-.05,1.39-.1,2.31,1.23,1.23,2.64,2.65,4.09,4.03,.2,.19,.63,.14,.95,.19,1.01,.16,1.62-.12,2.16-1.15,.95-1.83,2.64-2.86,4.69-3.21,.35-.06,.42-.18,.47-.52,.13-.81,.3-1.63,.57-2.41,.21-.62,.73-.8,1.22-.58,.5,.23,.61,.7,.42,1.31-.21,.64-.34,1.31-.53,2.08,1.3,0,2.41,0,3.51,0,.22,0,.44-.02,.65,.03,.46,.11,.74,.42,.73,.89-.01,.49-.29,.85-.8,.87-.91,.04-1.83,0-2.74,.03-1.21,.04-2.45-.05-3.61,.2-2.05,.44-3.31,1.85-3.71,3.89-.4,2.07,.34,3.77,2.01,5.08,.44,.34,.93,.34,1.44,.42,1.39,.19,2.45-.25,3.3-1.36,.46-.59,1.05-1.08,1.59-1.61,.46-.45,.98-.47,1.36-.08,.38,.39,.36,.89-.1,1.36-.93,.95-1.84,1.93-2.84,2.8-.42,.36-1.04,.53-1.6,.66-.45,.1-.95,.06-1.42,.02-1.87-.16-3.14,.81-4.12,2.23-1.43,2.07-1.19,4.91,.52,6.76,.12,.13,.25,.23,.41,.37,2.66-5.72,7.08-8.89,13.37-9.45,0-.19,.03-.37,.03-.54,0-4.27,.01-8.54,0-12.8,0-2.14-1.31-3.66-3.4-4-.36-.06-.75-.03-1.12,.02-.8,.11-1.25-.09-1.37-.67-.11-.57,.17-.9,.94-1.11,.05-.02,.1-.06,.15-.09h1.79c.87,.4,1.77,.74,2.59,1.22,.53,.31,.96,.8,1.29,1.09,.37-.3,.78-.74,1.29-1.02,.87-.48,1.79-.86,2.69-1.28h1.79Zm2.95,6.09c.45-2.33-1.94-4.65-4.31-4.27-2.12,.34-3.43,1.87-3.44,4.04-.01,4.31,0,8.61,0,12.92,0,.15,.03,.31,.02,.29,1.59,.46,3.09,.86,4.57,1.33,.64,.2,.85,.83,.54,1.33-.28,.45-.71,.55-1.37,.28-2.24-.92-4.56-1.16-6.94-.83-8.76,1.22-13.89,10.88-10,18.83,1.02,2.09,2.47,3.83,4.4,5.14,.98,.67,1.51,1.54,1.43,2.75-.02,.37,0,.74,0,1.13h1.56c.02-.1,.04-.16,.04-.21,0-3.28,.01-6.55-.01-9.83,0-.26-.17-.57-.35-.77-.47-.53-1.02-1-1.5-1.53-.26-.29-.48-.33-.86-.21-1.97,.62-4.01-1.07-3.73-3.06,.24-1.75,1.83-2.91,3.51-2.55,1.67,.35,2.66,2.07,2.13,3.76-.1,.32-.07,.5,.17,.72,.51,.48,.97,.99,1.48,1.47,.7,.65,1,1.43,1,2.38-.02,3.06,0,6.11,0,9.17v.66h2.08v-.75c0-4.92,0-9.85,.01-14.77,0-.49-.11-.76-.56-1.01-1.17-.64-1.69-2.01-1.32-3.27,.37-1.28,1.5-2.1,2.85-2.09,1.3,.02,2.42,.89,2.75,2.14,.34,1.27-.21,2.62-1.39,3.25-.39,.21-.52,.42-.52,.86,.02,5,.01,10,.01,15.01,0,.21,.02,.42,.03,.65h2.05v-.67c0-2.5,0-5,0-7.5,0-3.38-.19-2.87,2.18-5.22,.4-.39,.66-.73,.39-1.31-.12-.25-.09-.59-.07-.88,.09-1.59,1.53-2.75,3.22-2.62,1.49,.12,2.74,1.63,2.57,3.11-.19,1.63-1.66,2.97-3.15,2.6-1-.25-1.53,.1-2.08,.76-.22,.26-.46,.5-.72,.71-.41,.33-.53,.74-.53,1.25,.02,3.04,0,6.07,0,9.11v.64h1.61c0-.48,.03-.94,0-1.38-.11-1.29,.44-2.2,1.45-3,2.9-2.28,4.6-5.3,4.97-8.95,.46-4.52-1.05-8.34-4.42-11.41-.57-.52-.66-1-.27-1.44,.39-.45,.88-.42,1.46,.08,1.52,1.32,2.71,2.89,3.6,4.69,.22,.45,.42,.92,.64,1.39,3.07-2.14,3.1-6.69,.11-8.91-.75-.56-1.55-.93-2.53-.84-.57,.05-1.17,.09-1.72-.02-.56-.11-1.18-.3-1.59-.66-1-.87-1.91-1.85-2.84-2.8-.46-.47-.48-.97-.1-1.36,.38-.38,.9-.36,1.36,.09,.51,.5,1.08,.96,1.5,1.52,.9,1.2,2.05,1.68,3.5,1.41,.45-.08,.96-.16,1.31-.41,1.71-1.25,2.43-2.98,2.02-5.05-.4-2.04-1.67-3.39-3.71-3.9-.66-.17-1.37-.16-2.06-.18-1.29-.03-2.58,0-3.87-.02-.71-.01-1.12-.51-.95-1.11,.15-.53,.54-.7,1.04-.7,1.11,0,2.22,0,3.36,0Zm-17.11,47.44h16.87v-2.62h-16.87v2.62Zm13.68,1.89h-10.49c0,.73-.01,1.43,0,2.12,.02,.93,.67,1.63,1.61,1.65,2.42,.03,4.84,.03,7.26,0,.9-.01,1.56-.66,1.6-1.53,.04-.73,0-1.46,0-2.24Zm-31.07-49.45c.7,0,1.29-.59,1.29-1.29,0-.71-.62-1.33-1.34-1.31-.7,.02-1.28,.61-1.29,1.3,0,.72,.6,1.31,1.33,1.3Zm51.71,0c.71-.01,1.28-.59,1.28-1.29,0-.71-.63-1.33-1.34-1.31-.7,.02-1.28,.62-1.28,1.31,0,.72,.61,1.31,1.34,1.29Zm-.01,12.04c.71,0,1.29-.58,1.3-1.27,0-.72-.6-1.32-1.33-1.31-.7,0-1.29,.59-1.3,1.29,0,.72,.59,1.31,1.33,1.3Zm-51.73,0c.73,0,1.33-.59,1.32-1.31-.01-.69-.6-1.27-1.3-1.28-.73,0-1.33,.6-1.32,1.32,.01,.7,.59,1.26,1.3,1.27Zm.02,12.04c.71,0,1.29-.57,1.3-1.27,.01-.72-.59-1.31-1.32-1.31-.71,0-1.29,.57-1.3,1.27-.01,.72,.59,1.31,1.32,1.3Zm51.72,0c.71-.01,1.28-.59,1.28-1.28,0-.72-.6-1.3-1.34-1.29-.71,.01-1.28,.59-1.29,1.29,0,.72,.6,1.3,1.34,1.29Zm-17.5,4.76c.62,0,1.08-.46,1.08-1.08,0-.61-.48-1.09-1.09-1.09-.59,0-1.1,.51-1.1,1.1,0,.59,.5,1.07,1.11,1.07Zm-8.36-3.69c.61-.01,1.07-.49,1.06-1.11-.01-.6-.52-1.08-1.11-1.06-.6,.02-1.07,.51-1.06,1.12,.01,.61,.49,1.06,1.11,1.05Zm-8.4,3.69c.6,0,1.1-.49,1.1-1.08,0-.59-.51-1.09-1.1-1.09-.6,0-1.08,.48-1.08,1.1,0,.63,.46,1.08,1.08,1.08Z"/>
  </g>
  <circle class="cls-5" cx="822.63" cy="340.87" r="319.08"/>
  <line class="cls-9" x1="681.19" y1="395.41" x2="964.06" y2="395.41"/>
  <line class="cls-9" x1="681.19" y1="453.96" x2="964.06" y2="453.96"/>
  <g>
    <path class="cls-1" d="M682.64,362.05h5.12c2.61,0,4.64,1.67,4.64,4.04s-2.04,4.04-4.64,4.04h-3.69v4.53h-1.43v-12.61Zm4.86,6.72c2.06,0,3.45-.99,3.45-2.68s-1.39-2.68-3.45-2.68h-3.43v5.36h3.43Z"/>
    <path class="cls-1" d="M699.59,364.95v1.23c-2.15,0-3.67,1.32-3.67,3.18v5.3h-1.38v-9.49h1.38v1.85c.57-1.27,1.93-2.07,3.67-2.07Z"/>
    <path class="cls-1" d="M700.67,369.91c0-2.7,2.26-4.96,4.92-4.96s4.9,2.26,4.9,4.96-2.24,4.97-4.9,4.97-4.92-2.28-4.92-4.97Zm8.37,0c0-2.02-1.58-3.73-3.45-3.73s-3.47,1.71-3.47,3.73,1.58,3.74,3.47,3.74,3.45-1.71,3.45-3.74Z"/>
    <path class="cls-1" d="M721.56,361.83v12.83h-1.38v-1.78c-.72,1.25-1.93,2-3.45,2-2.5,0-4.37-2.06-4.37-4.97s1.87-4.96,4.37-4.96c1.52,0,2.74,.75,3.45,2v-5.12h1.38Zm-1.38,8.08c0-2.18-1.32-3.73-3.19-3.73s-3.18,1.54-3.18,3.73,1.32,3.74,3.18,3.74,3.19-1.56,3.19-3.74Z"/>
    <path class="cls-1" d="M732.54,365.17v9.49h-1.38v-1.52c-.55,1.01-1.78,1.74-3.12,1.74-2.09,0-3.56-1.52-3.56-3.67v-6.04h1.38v5.86c0,1.54,.97,2.62,2.37,2.62,1.6,0,2.94-1.12,2.94-2.44v-6.04h1.38Z"/>
    <path class="cls-1" d="M734.84,369.91c0-2.7,2.26-4.96,4.92-4.96,1.28,0,2.48,.53,3.38,1.4l-.96,.94c-.62-.68-1.49-1.1-2.42-1.1-1.89,0-3.47,1.71-3.47,3.73s1.58,3.74,3.47,3.74c.95,0,1.83-.44,2.48-1.16l.95,.94c-.9,.9-2.11,1.45-3.43,1.45-2.66,0-4.92-2.28-4.92-4.97Z"/>
    <path class="cls-1" d="M750.15,374.28c-.5,.39-1.12,.61-1.76,.61-1.36,0-2.31-1.01-2.31-2.42v-6.06h-1.49v-1.23h1.49v-2.61h1.38v2.61h2.33v1.23h-2.33v6.06c0,.7,.48,1.19,1.03,1.19,.42,0,.79-.17,.99-.39l.68,1.01Z"/>
    <path class="cls-1" d="M758.93,363.41v4.15h6.85v1.36h-6.85v4.39h7.6v1.36h-9.05v-12.61h9.05v1.36h-7.6Z"/>
    <path class="cls-1" d="M768.04,365.17h1.54l3.16,7.88,3.1-7.88h1.54l-3.98,9.49h-1.32l-4.04-9.49Z"/>
    <path class="cls-1" d="M786.25,368.88v5.78h-1.38v-1.49c-.68,1.12-2.09,1.71-3.34,1.71-2,0-3.47-1.16-3.47-3.03s1.69-3.16,3.73-3.16c1.03,0,2.11,.22,3.08,.53v-.35c0-1.29-.51-2.75-2.57-2.75-.95,0-1.91,.42-2.77,.86l-.55-1.12c1.36-.68,2.5-.92,3.41-.92,2.59,0,3.86,1.63,3.86,3.93Zm-1.38,2.81v-1.45c-.86-.24-1.84-.39-2.86-.39-1.41,0-2.61,.81-2.61,1.95s1.03,1.87,2.37,1.87c1.25,0,2.73-.64,3.1-1.98Z"/>
    <path class="cls-1" d="M789.06,361.83h1.38v12.83h-1.38v-12.83Z"/>
    <path class="cls-1" d="M801.28,365.17v9.49h-1.38v-1.52c-.55,1.01-1.78,1.74-3.12,1.74-2.09,0-3.56-1.52-3.56-3.67v-6.04h1.38v5.86c0,1.54,.97,2.62,2.37,2.62,1.6,0,2.94-1.12,2.94-2.44v-6.04h1.38Z"/>
    <path class="cls-1" d="M811.8,368.88v5.78h-1.38v-1.49c-.68,1.12-2.09,1.71-3.34,1.71-2,0-3.47-1.16-3.47-3.03s1.69-3.16,3.73-3.16c1.03,0,2.11,.22,3.08,.53v-.35c0-1.29-.51-2.75-2.57-2.75-.96,0-1.91,.42-2.77,.86l-.55-1.12c1.36-.68,2.5-.92,3.42-.92,2.59,0,3.85,1.63,3.85,3.93Zm-1.38,2.81v-1.45c-.86-.24-1.83-.39-2.86-.39-1.41,0-2.61,.81-2.61,1.95s1.03,1.87,2.37,1.87c1.25,0,2.74-.64,3.1-1.98Z"/>
    <path class="cls-1" d="M819.46,374.28c-.5,.39-1.12,.61-1.76,.61-1.36,0-2.31-1.01-2.31-2.42v-6.06h-1.49v-1.23h1.49v-2.61h1.38v2.61h2.33v1.23h-2.33v6.06c0,.7,.48,1.19,1.03,1.19,.42,0,.79-.17,.99-.39l.68,1.01Z"/>
    <path class="cls-1" d="M821.17,362.53c0-.48,.4-.9,.92-.9s.9,.42,.9,.9-.4,.92-.9,.92-.92-.42-.92-.92Zm.22,2.64h1.38v9.49h-1.38v-9.49Z"/>
    <path class="cls-1" d="M825.03,369.91c0-2.7,2.26-4.96,4.92-4.96s4.9,2.26,4.9,4.96-2.24,4.97-4.9,4.97-4.92-2.28-4.92-4.97Zm8.37,0c0-2.02-1.58-3.73-3.45-3.73s-3.47,1.71-3.47,3.73,1.58,3.74,3.47,3.74,3.45-1.71,3.45-3.74Z"/>
    <path class="cls-1" d="M845.2,368.62v6.04h-1.38v-5.86c0-1.54-.97-2.62-2.37-2.62-1.6,0-2.94,1.12-2.94,2.44v6.04h-1.38v-9.49h1.38v1.52c.55-1.01,1.78-1.74,3.12-1.74,2.09,0,3.56,1.52,3.56,3.67Z"/>
    <path class="cls-1" d="M682.92,419.43h4.26c4,0,6.83,2.61,6.83,6.3s-2.83,6.31-6.83,6.31h-4.26v-12.61Zm4.26,11.31c3.16,0,5.38-2.07,5.38-5.01s-2.22-4.99-5.38-4.99h-2.83v10h2.83Z"/>
    <path class="cls-1" d="M703.85,429.89l.84,.9c-.83,.9-2.5,1.47-3.82,1.47-2.53,0-4.81-2.07-4.81-4.99s2.13-4.94,4.68-4.94c2.86,0,4.5,2.17,4.5,5.49h-7.76c.2,1.85,1.5,3.21,3.38,3.21,1.12,0,2.4-.5,2.99-1.14Zm-6.35-3.3h6.39c-.18-1.71-1.19-3.03-3.08-3.03-1.69,0-3.05,1.19-3.3,3.03Z"/>
    <path class="cls-1" d="M706.6,422.55h1.54l3.16,7.88,3.1-7.88h1.54l-3.98,9.49h-1.32l-4.04-9.49Z"/>
    <path class="cls-1" d="M724.47,429.89l.84,.9c-.83,.9-2.5,1.47-3.82,1.47-2.53,0-4.81-2.07-4.81-4.99s2.13-4.94,4.68-4.94c2.86,0,4.5,2.17,4.5,5.49h-7.76c.2,1.85,1.5,3.21,3.38,3.21,1.12,0,2.4-.5,2.99-1.14Zm-6.35-3.3h6.39c-.18-1.71-1.19-3.03-3.08-3.03-1.69,0-3.05,1.19-3.3,3.03Z"/>
    <path class="cls-1" d="M728.12,419.21h1.38v12.83h-1.38v-12.83Z"/>
    <path class="cls-1" d="M731.77,427.28c0-2.7,2.26-4.96,4.92-4.96s4.9,2.26,4.9,4.96-2.24,4.97-4.9,4.97-4.92-2.28-4.92-4.97Zm8.37,0c0-2.02-1.58-3.73-3.45-3.73s-3.47,1.71-3.47,3.73,1.58,3.74,3.47,3.74,3.45-1.71,3.45-3.74Z"/>
    <path class="cls-1" d="M753.2,427.28c0,2.92-1.87,4.97-4.37,4.97-1.52,0-2.73-.75-3.45-2v4.94h-1.38v-12.65h1.38v1.78c.72-1.25,1.93-2,3.45-2,2.5,0,4.37,2.06,4.37,4.96Zm-1.45,0c0-2.18-1.32-3.73-3.18-3.73s-3.19,1.54-3.19,3.73,1.32,3.74,3.19,3.74,3.18-1.56,3.18-3.74Z"/>
    <path class="cls-1" d="M767.3,427.37l3.27,4.66h-1.63l-3.19-4.53h-3.34v4.53h-1.43v-12.61h5.12c2.61,0,4.64,1.67,4.64,4.04,0,1.98-1.43,3.49-3.43,3.91Zm-4.9-1.23h3.43c2.06,0,3.45-.99,3.45-2.68s-1.39-2.68-3.45-2.68h-3.43v5.36Z"/>
    <path class="cls-1" d="M772.33,427.28c0-2.7,2.26-4.96,4.92-4.96s4.9,2.26,4.9,4.96-2.24,4.97-4.9,4.97-4.92-2.28-4.92-4.97Zm8.37,0c0-2.02-1.58-3.73-3.45-3.73s-3.47,1.71-3.47,3.73,1.58,3.74,3.47,3.74,3.45-1.71,3.45-3.74Z"/>
    <path class="cls-1" d="M792.14,426.25v5.78h-1.38v-1.49c-.68,1.12-2.09,1.71-3.34,1.71-2,0-3.47-1.16-3.47-3.03s1.69-3.16,3.73-3.16c1.03,0,2.11,.22,3.08,.53v-.35c0-1.29-.51-2.75-2.57-2.75-.96,0-1.91,.42-2.77,.86l-.55-1.12c1.36-.68,2.5-.92,3.42-.92,2.59,0,3.85,1.63,3.85,3.93Zm-1.38,2.81v-1.45c-.86-.24-1.83-.39-2.86-.39-1.41,0-2.61,.81-2.61,1.95s1.03,1.87,2.37,1.87c1.25,0,2.74-.64,3.1-1.98Z"/>
    <path class="cls-1" d="M803.74,419.21v12.83h-1.38v-1.78c-.72,1.25-1.93,2-3.45,2-2.5,0-4.37-2.06-4.37-4.97s1.87-4.96,4.37-4.96c1.52,0,2.74,.75,3.45,2v-5.12h1.38Zm-1.38,8.08c0-2.18-1.32-3.73-3.19-3.73s-3.18,1.54-3.18,3.73,1.32,3.74,3.18,3.74,3.19-1.56,3.19-3.74Z"/>
    <path class="cls-1" d="M820.3,426v6.04h-1.38v-5.86c0-1.54-.9-2.62-2.18-2.62-1.51,0-2.57,1.01-2.57,2.44v6.04h-1.38v-5.86c0-1.54-.9-2.62-2.18-2.62-1.51,0-2.57,1.01-2.57,2.44v6.04h-1.38v-9.49h1.38v1.4c.48-.99,1.5-1.62,2.75-1.62,1.43,0,2.55,.79,3.06,2.02,.39-1.23,1.63-2.02,3.07-2.02,1.98,0,3.38,1.52,3.38,3.67Z"/>
    <path class="cls-1" d="M830.81,426.25v5.78h-1.38v-1.49c-.68,1.12-2.09,1.71-3.34,1.71-2,0-3.47-1.16-3.47-3.03s1.69-3.16,3.73-3.16c1.03,0,2.11,.22,3.08,.53v-.35c0-1.29-.51-2.75-2.57-2.75-.96,0-1.91,.42-2.77,.86l-.55-1.12c1.36-.68,2.5-.92,3.41-.92,2.59,0,3.85,1.63,3.85,3.93Zm-1.38,2.81v-1.45c-.86-.24-1.84-.39-2.86-.39-1.41,0-2.61,.81-2.61,1.95s1.03,1.87,2.37,1.87c1.25,0,2.74-.64,3.1-1.98Z"/>
    <path class="cls-1" d="M842.94,427.28c0,2.92-1.87,4.97-4.37,4.97-1.52,0-2.73-.75-3.45-2v4.94h-1.38v-12.65h1.38v1.78c.72-1.25,1.93-2,3.45-2,2.5,0,4.37,2.06,4.37,4.96Zm-1.45,0c0-2.18-1.32-3.73-3.18-3.73s-3.19,1.54-3.19,3.73,1.32,3.74,3.19,3.74,3.18-1.56,3.18-3.74Z"/>
    <path class="cls-1" d="M686.26,478.16h-4.24v-1.36h9.91v1.36h-4.24v11.25h-1.43v-11.25Z"/>
    <path class="cls-1" d="M701.42,487.27l.85,.9c-.83,.9-2.5,1.47-3.82,1.47-2.53,0-4.81-2.07-4.81-4.99s2.13-4.94,4.68-4.94c2.86,0,4.5,2.17,4.5,5.49h-7.76c.2,1.85,1.51,3.21,3.38,3.21,1.12,0,2.41-.5,2.99-1.14Zm-6.35-3.3h6.39c-.18-1.71-1.19-3.03-3.08-3.03-1.69,0-3.05,1.19-3.3,3.03Z"/>
    <path class="cls-1" d="M718.72,483.37v6.04h-1.38v-5.86c0-1.54-.9-2.62-2.18-2.62-1.5,0-2.57,1.01-2.57,2.44v6.04h-1.38v-5.86c0-1.54-.9-2.62-2.18-2.62-1.5,0-2.57,1.01-2.57,2.44v6.04h-1.38v-9.49h1.38v1.4c.48-.99,1.5-1.62,2.75-1.62,1.43,0,2.55,.79,3.07,2.02,.38-1.23,1.63-2.02,3.07-2.02,1.98,0,3.38,1.52,3.38,3.67Z"/>
    <path class="cls-1" d="M730.84,484.66c0,2.92-1.87,4.97-4.37,4.97-1.52,0-2.74-.75-3.45-2v4.94h-1.38v-12.65h1.38v1.78c.71-1.25,1.93-2,3.45-2,2.5,0,4.37,2.06,4.37,4.96Zm-1.45,0c0-2.18-1.32-3.73-3.18-3.73s-3.19,1.54-3.19,3.73,1.32,3.74,3.19,3.74,3.18-1.56,3.18-3.74Z"/>
    <path class="cls-1" d="M733.22,476.58h1.38v12.83h-1.38v-12.83Z"/>
    <path class="cls-1" d="M745.1,483.63v5.78h-1.38v-1.49c-.68,1.12-2.09,1.71-3.34,1.71-2,0-3.47-1.16-3.47-3.03s1.69-3.16,3.73-3.16c1.03,0,2.11,.22,3.08,.53v-.35c0-1.29-.51-2.75-2.57-2.75-.95,0-1.91,.42-2.77,.86l-.55-1.12c1.36-.68,2.5-.92,3.41-.92,2.59,0,3.86,1.63,3.86,3.93Zm-1.38,2.81v-1.45c-.86-.24-1.84-.39-2.86-.39-1.41,0-2.61,.81-2.61,1.95s1.03,1.87,2.37,1.87c1.25,0,2.73-.64,3.1-1.98Z"/>
    <path class="cls-1" d="M752.76,489.03c-.5,.39-1.12,.61-1.76,.61-1.36,0-2.31-1.01-2.31-2.42v-6.06h-1.49v-1.23h1.49v-2.61h1.38v2.61h2.33v1.23h-2.33v6.06c0,.7,.48,1.19,1.03,1.19,.42,0,.79-.17,.99-.39l.68,1.01Z"/>
    <path class="cls-1" d="M761.98,487.27l.84,.9c-.83,.9-2.5,1.47-3.82,1.47-2.53,0-4.81-2.07-4.81-4.99s2.13-4.94,4.68-4.94c2.86,0,4.5,2.17,4.5,5.49h-7.76c.2,1.85,1.5,3.21,3.38,3.21,1.12,0,2.4-.5,2.99-1.14Zm-6.35-3.3h6.39c-.18-1.71-1.19-3.03-3.08-3.03-1.69,0-3.05,1.19-3.3,3.03Z"/>
    <path class="cls-1" d="M765.06,488.22l.72-1.01c1.08,.79,2.17,1.19,3.21,1.19,1.25,0,2.09-.59,2.09-1.49,0-1.03-1.1-1.36-2.39-1.73-2.29-.66-3.18-1.34-3.18-2.7,0-1.73,1.43-2.79,3.32-2.79,1.17,0,2.39,.4,3.4,1.07l-.66,1.06c-.95-.61-1.89-.9-2.74-.9-1.06,0-1.95,.48-1.95,1.39,0,.83,.7,1.08,2.46,1.65,1.52,.48,3.1,.99,3.1,2.79s-1.5,2.86-3.47,2.86c-1.32,0-2.79-.5-3.93-1.41Z"/>
  </g>
  <g>
    <path class="cls-1" d="M686.18,205.79h11.13c3.94,0,6.66,2.3,6.66,5.5,0,2.24-1.12,3.87-3.07,4.9,2.56,1.15,4.03,3.2,4.03,5.63,0,3.52-3.01,5.95-7.2,5.95h-11.55v-21.98Zm9.95,8.86c1.76,0,3.01-1.02,3.01-2.43s-1.25-2.4-3.01-2.4h-5.25v4.83h5.25Zm.74,9.09c1.89,0,3.23-1.12,3.23-2.69s-1.34-2.69-3.23-2.69h-5.98v5.38h5.98Z"/>
    <path class="cls-1" d="M723.88,211.23v16.54h-4.67v-2.08c-.99,1.5-2.85,2.46-4.99,2.46-3.58,0-6.14-2.66-6.14-6.4v-10.53h4.51v9.54c0,2.05,1.28,3.46,3.14,3.46,1.95,0,3.46-1.41,3.46-3.2l.03,.1v-9.89h4.67Z"/>
    <path class="cls-1" d="M726.63,225.66l2.02-3.23c1.47,1.06,3.33,1.86,5.54,1.86,1.25,0,2.14-.51,2.14-1.25,0-1.02-1.21-1.34-2.91-1.79-3.39-.83-6.02-1.76-6.05-5.02-.03-3.14,2.56-5.38,6.46-5.38,2.37,0,4.7,.83,6.53,2.05l-1.89,3.33c-1.5-.93-3.23-1.47-4.64-1.47-1.15,0-1.95,.42-1.95,.99,0,.9,.67,1.15,2.91,1.76,2.85,.74,6.02,1.7,6.02,5.31,0,3.26-2.66,5.34-6.72,5.34-2.66,0-5.47-.9-7.46-2.5Z"/>
    <path class="cls-1" d="M743.72,206.39c0-1.31,1.12-2.5,2.56-2.5s2.5,1.18,2.5,2.5c0,1.41-1.12,2.56-2.5,2.56s-2.56-1.15-2.56-2.56Zm.19,4.83h4.67v16.54h-4.67v-16.54Z"/>
    <path class="cls-1" d="M768.36,217.24v10.53h-4.51v-9.54c0-2.05-1.28-3.46-3.14-3.46-1.95,0-3.46,1.41-3.46,3.2l-.03-.1v9.89h-4.67v-16.54h4.67v2.08c.99-1.5,2.85-2.46,4.99-2.46,3.58,0,6.14,2.66,6.14,6.4Z"/>
    <path class="cls-1" d="M783.91,222.55l2.98,3.04c-1.47,1.54-4.32,2.56-6.75,2.56-4.93,0-8.77-3.62-8.77-8.7s3.68-8.61,8.51-8.61c5.18,0,8.22,3.94,8.22,10.17h-11.93c.54,1.79,1.98,3.01,3.94,3.01,1.31,0,2.91-.61,3.81-1.47Zm-7.68-4.9h7.39c-.45-1.63-1.66-2.69-3.55-2.69-1.76,0-3.23,1.02-3.84,2.69Z"/>
    <path class="cls-1" d="M790.02,225.66l2.02-3.23c1.47,1.06,3.33,1.86,5.54,1.86,1.25,0,2.14-.51,2.14-1.25,0-1.02-1.22-1.34-2.91-1.79-3.39-.83-6.02-1.76-6.05-5.02-.03-3.14,2.56-5.38,6.46-5.38,2.37,0,4.7,.83,6.53,2.05l-1.89,3.33c-1.5-.93-3.23-1.47-4.64-1.47-1.15,0-1.95,.42-1.95,.99,0,.9,.67,1.15,2.91,1.76,2.85,.74,6.02,1.7,6.02,5.31,0,3.26-2.66,5.34-6.72,5.34-2.66,0-5.47-.9-7.46-2.5Z"/>
    <path class="cls-1" d="M806.09,225.66l2.02-3.23c1.47,1.06,3.33,1.86,5.54,1.86,1.25,0,2.14-.51,2.14-1.25,0-1.02-1.22-1.34-2.91-1.79-3.39-.83-6.02-1.76-6.05-5.02-.03-3.14,2.56-5.38,6.46-5.38,2.37,0,4.7,.83,6.53,2.05l-1.89,3.33c-1.5-.93-3.23-1.47-4.64-1.47-1.15,0-1.95,.42-1.95,.99,0,.9,.67,1.15,2.91,1.76,2.85,.74,6.02,1.7,6.02,5.31,0,3.26-2.66,5.34-6.72,5.34-2.66,0-5.47-.9-7.46-2.5Z"/>
    <path class="cls-1" d="M847.17,224.31h-9.79l-1.41,3.46h-5.28l8.96-21.98h5.28l8.96,21.98h-5.31l-1.41-3.46Zm-1.63-4l-3.26-8.03-3.26,8.03h6.53Z"/>
    <path class="cls-1" d="M873.38,205.4v22.37h-4.67v-2.37c-1.31,1.73-3.23,2.75-5.57,2.75-4.42,0-7.62-3.58-7.62-8.67s3.2-8.64,7.62-8.64c2.34,0,4.26,1.02,5.57,2.75v-8.19h4.67Zm-4.67,14.08c0-2.75-1.76-4.7-4.22-4.7-2.59,0-4.42,1.95-4.42,4.7s1.82,4.74,4.42,4.74,4.22-1.95,4.22-4.74Z"/>
    <path class="cls-1" d="M875.85,211.23h4.89l4.45,11.17,4.35-11.17h4.86l-7.07,16.54h-4.32l-7.17-16.54Z"/>
    <path class="cls-1" d="M896.65,206.39c0-1.31,1.12-2.5,2.56-2.5s2.5,1.18,2.5,2.5c0,1.41-1.12,2.56-2.5,2.56s-2.56-1.15-2.56-2.56Zm.19,4.83h4.67v16.54h-4.67v-16.54Z"/>
    <path class="cls-1" d="M904.33,225.66l2.02-3.23c1.47,1.06,3.33,1.86,5.54,1.86,1.25,0,2.14-.51,2.14-1.25,0-1.02-1.22-1.34-2.91-1.79-3.39-.83-6.02-1.76-6.05-5.02-.03-3.14,2.56-5.38,6.46-5.38,2.37,0,4.7,.83,6.53,2.05l-1.89,3.33c-1.5-.93-3.23-1.47-4.64-1.47-1.15,0-1.95,.42-1.95,.99,0,.9,.67,1.15,2.91,1.76,2.85,.74,6.02,1.7,6.02,5.31,0,3.26-2.66,5.34-6.72,5.34-2.66,0-5.47-.9-7.46-2.5Z"/>
    <path class="cls-1" d="M920.71,219.48c0-4.7,4.13-8.64,9.06-8.64s8.99,3.94,8.99,8.64-4.1,8.67-8.99,8.67-9.06-3.97-9.06-8.67Zm13.6,0c0-2.56-2.08-4.7-4.54-4.7s-4.58,2.14-4.58,4.7,2.08,4.74,4.58,4.74,4.54-2.18,4.54-4.74Z"/>
    <path class="cls-1" d="M952.26,210.84v3.94c-3.46,0-5.66,1.98-5.66,5.09v7.9h-4.67v-16.54h4.67v3.07c1.09-2.14,3.13-3.46,5.66-3.46Z"/>
    <path class="cls-1" d="M954.57,232.5l.99-3.2c.8,.45,1.63,.74,2.18,.74,.9,0,1.6-.29,1.95-.9l.58-1.22-6.88-16.7h4.83l4.35,11.62,4.13-11.62h4.77l-6.78,17.38c-1.25,3.23-3.36,4.93-5.95,4.93-1.38,0-3.04-.42-4.16-1.02Z"/>
    <path class="cls-1" d="M684.55,262.91l2.72-3.23c2.08,1.79,4.45,2.88,7.23,2.88,2.37,0,3.58-1.09,3.58-2.46,0-1.57-1.28-2.05-4.64-2.82-4.64-1.06-7.94-2.37-7.94-6.62s3.33-6.85,8.13-6.85c3.58,0,6.37,1.12,8.61,3.04l-2.46,3.39c-1.95-1.57-4.16-2.43-6.27-2.43s-3.23,1.06-3.23,2.37c0,1.6,1.31,2.11,4.7,2.88,4.74,1.06,7.87,2.46,7.87,6.53s-3.17,6.98-8.54,6.98c-3.81,0-7.2-1.28-9.76-3.65Z"/>
    <path class="cls-1" d="M717.74,260.95l2.98,3.04c-1.47,1.54-4.32,2.56-6.75,2.56-4.93,0-8.77-3.62-8.77-8.7s3.68-8.61,8.51-8.61c5.18,0,8.22,3.94,8.22,10.17h-11.94c.54,1.79,1.98,3.01,3.94,3.01,1.31,0,2.91-.61,3.81-1.47Zm-7.68-4.9h7.39c-.45-1.63-1.66-2.69-3.55-2.69-1.76,0-3.23,1.02-3.84,2.69Z"/>
    <path class="cls-1" d="M735.43,249.24v3.94c-3.46,0-5.66,1.98-5.66,5.09v7.9h-4.67v-16.54h4.67v3.07c1.09-2.14,3.13-3.46,5.66-3.46Z"/>
    <path class="cls-1" d="M736.49,249.63h4.9l4.45,11.17,4.35-11.17h4.86l-7.07,16.54h-4.32l-7.17-16.54Z"/>
    <path class="cls-1" d="M757.29,244.79c0-1.31,1.12-2.5,2.56-2.5s2.5,1.18,2.5,2.5c0,1.41-1.12,2.56-2.5,2.56s-2.56-1.15-2.56-2.56Zm.19,4.83h4.67v16.54h-4.67v-16.54Z"/>
    <path class="cls-1" d="M765.29,257.88c0-4.7,4.16-8.64,9.06-8.64,2.69,0,4.9,1.09,6.5,2.82l-3.1,2.66c-.83-.93-2.14-1.54-3.42-1.54-2.43,0-4.48,2.14-4.48,4.67s2.05,4.77,4.51,4.77c1.28,0,2.62-.64,3.49-1.6l3.1,2.62c-1.63,1.79-3.87,2.91-6.62,2.91-4.9,0-9.02-3.97-9.02-8.67Z"/>
    <path class="cls-1" d="M795.37,260.95l2.97,3.04c-1.47,1.54-4.32,2.56-6.75,2.56-4.93,0-8.77-3.62-8.77-8.7s3.68-8.61,8.51-8.61c5.18,0,8.22,3.94,8.22,10.17h-11.94c.54,1.79,1.98,3.01,3.94,3.01,1.31,0,2.91-.61,3.81-1.47Zm-7.68-4.9h7.39c-.45-1.63-1.66-2.69-3.55-2.69-1.76,0-3.23,1.02-3.84,2.69Z"/>
  </g>
  <g>
    <path class="cls-1" d="M684.16,319.44c0-2.77,1.2-5.17,3.35-6.96l.64,.67c-1.74,1.79-2.71,3.67-2.71,6.29s.96,4.5,2.71,6.28l-.64,.69c-2.15-1.79-3.35-4.21-3.35-6.96Z"/>
    <path class="cls-1" d="M697.99,321.18h-6.13l-1.1,2.5h-1.36l4.85-11h1.36l4.85,11h-1.36l-1.1-2.5Zm-.51-1.18l-2.54-5.78-2.56,5.78h5.11Z"/>
    <path class="cls-1" d="M701.68,322.64l.62-.88c.94,.69,1.89,1.04,2.8,1.04,1.09,0,1.83-.51,1.83-1.3,0-.9-.96-1.18-2.08-1.5-2-.58-2.77-1.17-2.77-2.35,0-1.5,1.25-2.43,2.9-2.43,1.02,0,2.08,.35,2.96,.93l-.58,.93c-.83-.53-1.65-.78-2.38-.78-.93,0-1.7,.42-1.7,1.22,0,.72,.61,.94,2.15,1.44,1.33,.42,2.71,.86,2.71,2.43s-1.31,2.5-3.03,2.5c-1.15,0-2.43-.43-3.42-1.23Z"/>
    <path class="cls-1" d="M709.61,322.64l.62-.88c.94,.69,1.89,1.04,2.8,1.04,1.09,0,1.82-.51,1.82-1.3,0-.9-.96-1.18-2.08-1.5-2-.58-2.77-1.17-2.77-2.35,0-1.5,1.25-2.43,2.9-2.43,1.03,0,2.08,.35,2.96,.93l-.58,.93c-.83-.53-1.65-.78-2.38-.78-.93,0-1.7,.42-1.7,1.22,0,.72,.61,.94,2.15,1.44,1.33,.42,2.71,.86,2.71,2.43s-1.31,2.5-3.03,2.5c-1.15,0-2.43-.43-3.43-1.23Z"/>
    <path class="cls-1" d="M724.39,321.81l.74,.78c-.72,.79-2.18,1.28-3.33,1.28-2.21,0-4.19-1.81-4.19-4.35s1.86-4.31,4.08-4.31c2.5,0,3.92,1.89,3.92,4.79h-6.77c.18,1.62,1.31,2.8,2.95,2.8,.98,0,2.1-.43,2.61-.99Zm-5.54-2.88h5.57c-.16-1.49-1.04-2.64-2.69-2.64-1.47,0-2.66,1.04-2.88,2.64Z"/>
    <path class="cls-1" d="M727.07,322.64l.62-.88c.95,.69,1.89,1.04,2.8,1.04,1.09,0,1.83-.51,1.83-1.3,0-.9-.96-1.18-2.08-1.5-2-.58-2.77-1.17-2.77-2.35,0-1.5,1.25-2.43,2.9-2.43,1.02,0,2.08,.35,2.96,.93l-.58,.93c-.83-.53-1.65-.78-2.38-.78-.93,0-1.7,.42-1.7,1.22,0,.72,.61,.94,2.14,1.44,1.33,.42,2.71,.86,2.71,2.43s-1.31,2.5-3.03,2.5c-1.15,0-2.43-.43-3.42-1.23Z"/>
    <path class="cls-1" d="M735.01,322.64l.62-.88c.94,.69,1.89,1.04,2.8,1.04,1.09,0,1.83-.51,1.83-1.3,0-.9-.96-1.18-2.08-1.5-2-.58-2.77-1.17-2.77-2.35,0-1.5,1.25-2.43,2.9-2.43,1.02,0,2.08,.35,2.96,.93l-.58,.93c-.83-.53-1.65-.78-2.38-.78-.93,0-1.7,.42-1.7,1.22,0,.72,.61,.94,2.15,1.44,1.33,.42,2.71,.86,2.71,2.43s-1.31,2.5-3.03,2.5c-1.15,0-2.43-.43-3.42-1.23Z"/>
    <path class="cls-1" d="M755.33,318.42v5.27h-1.2v-5.11c0-1.34-.78-2.29-1.91-2.29-1.31,0-2.24,.88-2.24,2.13v5.27h-1.2v-5.11c0-1.34-.78-2.29-1.9-2.29-1.31,0-2.24,.88-2.24,2.13v5.27h-1.2v-8.28h1.2v1.22c.42-.86,1.31-1.41,2.4-1.41,1.25,0,2.22,.69,2.67,1.76,.34-1.07,1.42-1.76,2.67-1.76,1.73,0,2.95,1.33,2.95,3.2Z"/>
    <path class="cls-1" d="M764.1,321.81l.74,.78c-.72,.79-2.18,1.28-3.33,1.28-2.21,0-4.19-1.81-4.19-4.35s1.86-4.31,4.08-4.31c2.5,0,3.92,1.89,3.92,4.79h-6.77c.18,1.62,1.31,2.8,2.94,2.8,.98,0,2.1-.43,2.61-.99Zm-5.54-2.88h5.57c-.16-1.49-1.04-2.64-2.69-2.64-1.47,0-2.66,1.04-2.88,2.64Z"/>
    <path class="cls-1" d="M774.32,318.42v5.27h-1.2v-5.11c0-1.34-.85-2.29-2.07-2.29-1.39,0-2.56,.98-2.56,2.13v5.27h-1.2v-8.28h1.2v1.33c.48-.88,1.55-1.52,2.72-1.52,1.83,0,3.11,1.33,3.11,3.2Z"/>
    <path class="cls-1" d="M780.98,323.35c-.43,.34-.98,.53-1.54,.53-1.19,0-2.02-.88-2.02-2.11v-5.28h-1.3v-1.07h1.3v-2.27h1.2v2.27h2.03v1.07h-2.03v5.28c0,.61,.42,1.04,.9,1.04,.37,0,.69-.14,.86-.34l.59,.88Z"/>
    <path class="cls-1" d="M782.72,325.36c.43-.5,.7-.99,.83-1.49-.48,0-.86-.4-.86-.88,0-.45,.37-.85,.88-.85,.61,0,.98,.54,.98,1.28,0,.64-.27,1.18-1.23,2.38l-.59-.45Z"/>
    <path class="cls-1" d="M791.05,322.11l.79-.98c.93,.93,2.06,1.58,3.6,1.58,1.7,0,2.56-.93,2.56-1.92,0-1.17-1.04-1.63-2.96-2.08-2.21-.51-3.6-1.2-3.6-3.11,0-1.76,1.57-3.14,3.68-3.14,1.63,0,2.85,.64,3.86,1.57l-.77,.98c-.91-.88-2-1.41-3.15-1.41-1.36,0-2.35,.9-2.35,1.91,0,1.14,1.09,1.54,2.96,1.98,2.1,.5,3.6,1.25,3.6,3.19,0,1.75-1.31,3.17-3.87,3.17-1.81,0-3.23-.66-4.34-1.74Z"/>
    <path class="cls-1" d="M805.57,323.35c-.43,.34-.98,.53-1.54,.53-1.19,0-2.02-.88-2.02-2.11v-5.28h-1.3v-1.07h1.3v-2.27h1.2v2.27h2.03v1.07h-2.03v5.28c0,.61,.42,1.04,.9,1.04,.37,0,.69-.14,.86-.34l.59,.88Z"/>
    <path class="cls-1" d="M813.99,318.64v5.04h-1.2v-1.3c-.59,.98-1.82,1.49-2.91,1.49-1.75,0-3.03-1.01-3.03-2.64s1.47-2.75,3.25-2.75c.9,0,1.84,.19,2.69,.46v-.3c0-1.12-.45-2.4-2.24-2.4-.83,0-1.67,.37-2.42,.75l-.48-.98c1.18-.59,2.18-.8,2.98-.8,2.26,0,3.36,1.42,3.36,3.43Zm-1.2,2.45v-1.26c-.75-.21-1.6-.34-2.5-.34-1.23,0-2.27,.7-2.27,1.7s.9,1.63,2.06,1.63c1.09,0,2.38-.56,2.71-1.73Z"/>
    <path class="cls-1" d="M820.66,323.35c-.43,.34-.98,.53-1.54,.53-1.19,0-2.02-.88-2.02-2.11v-5.28h-1.3v-1.07h1.3v-2.27h1.2v2.27h2.03v1.07h-2.03v5.28c0,.61,.42,1.04,.9,1.04,.37,0,.69-.14,.86-.34l.59,.88Z"/>
    <path class="cls-1" d="M828.69,321.81l.74,.78c-.72,.79-2.18,1.28-3.33,1.28-2.21,0-4.19-1.81-4.19-4.35s1.86-4.31,4.08-4.31c2.5,0,3.92,1.89,3.92,4.79h-6.77c.18,1.62,1.31,2.8,2.94,2.8,.98,0,2.1-.43,2.61-.99Zm-5.54-2.88h5.57c-.16-1.49-1.04-2.64-2.69-2.64-1.47,0-2.66,1.04-2.88,2.64Z"/>
    <path class="cls-1" d="M839.5,315.41v7.4c0,2.13-1.68,3.63-4.06,3.63-1.35,0-2.59-.46-3.35-1.1l.53-.94c.64,.61,1.63,.98,2.66,.98,1.9,0,3.02-.94,3.02-2.56v-1.34c-.64,1.01-1.7,1.62-3.01,1.62-2.22,0-3.81-1.63-3.81-3.94s1.58-3.92,3.81-3.92c1.31,0,2.37,.61,3.01,1.62v-1.42h1.2Zm-1.2,3.73c0-1.67-1.15-2.85-2.78-2.85s-2.77,1.18-2.77,2.85,1.15,2.87,2.77,2.87,2.78-1.18,2.78-2.87Z"/>
    <path class="cls-1" d="M841.97,326.29l.29-1.02c.29,.14,.62,.21,.98,.21,.53,0,.88-.18,1.2-.74l.48-1.02-3.6-8.31h1.33l2.9,6.88,2.74-6.88h1.3l-3.78,9.2c-.58,1.41-1.38,1.94-2.51,1.95-.48,0-.93-.1-1.31-.27Z"/>
    <path class="cls-1" d="M849.58,325.36c.43-.5,.7-.99,.83-1.49-.48,0-.87-.4-.87-.88,0-.45,.37-.85,.88-.85,.61,0,.98,.54,.98,1.28,0,.64-.27,1.18-1.23,2.38l-.59-.45Z"/>
    <path class="cls-1" d="M861.6,313.87h-3.7v-1.18h8.64v1.18h-3.7v9.81h-1.25v-9.81Z"/>
    <path class="cls-1" d="M872.99,315.21v1.07c-1.87,0-3.2,1.15-3.2,2.77v4.63h-1.2v-8.28h1.2v1.62c.5-1.1,1.68-1.81,3.2-1.81Z"/>
    <path class="cls-1" d="M881.38,318.64v5.04h-1.2v-1.3c-.59,.98-1.82,1.49-2.91,1.49-1.75,0-3.03-1.01-3.03-2.64s1.47-2.75,3.25-2.75c.9,0,1.84,.19,2.69,.46v-.3c0-1.12-.45-2.4-2.24-2.4-.83,0-1.67,.37-2.42,.75l-.48-.98c1.19-.59,2.18-.8,2.98-.8,2.26,0,3.36,1.42,3.36,3.43Zm-1.2,2.45v-1.26c-.75-.21-1.6-.34-2.5-.34-1.23,0-2.27,.7-2.27,1.7s.9,1.63,2.06,1.63c1.09,0,2.38-.56,2.71-1.73Z"/>
    <path class="cls-1" d="M890.87,318.42v5.27h-1.2v-5.11c0-1.34-.85-2.29-2.06-2.29-1.39,0-2.56,.98-2.56,2.13v5.27h-1.2v-8.28h1.2v1.33c.48-.88,1.55-1.52,2.72-1.52,1.82,0,3.1,1.33,3.1,3.2Z"/>
    <path class="cls-1" d="M892.8,322.64l.62-.88c.94,.69,1.89,1.04,2.8,1.04,1.09,0,1.82-.51,1.82-1.3,0-.9-.96-1.18-2.08-1.5-2-.58-2.77-1.17-2.77-2.35,0-1.5,1.25-2.43,2.9-2.43,1.03,0,2.08,.35,2.96,.93l-.58,.93c-.83-.53-1.65-.78-2.38-.78-.93,0-1.7,.42-1.7,1.22,0,.72,.61,.94,2.15,1.44,1.33,.42,2.71,.86,2.71,2.43s-1.31,2.5-3.03,2.5c-1.15,0-2.43-.43-3.43-1.23Z"/>
    <path class="cls-1" d="M903.1,315.41h2.03v1.07h-2.03v7.2h-1.2v-7.2h-1.3v-1.07h1.3v-1.14c0-1.23,.83-2.11,2.02-2.11,.56,0,1.11,.19,1.54,.53l-.59,.88c-.18-.19-.5-.34-.87-.34-.48,0-.9,.43-.9,1.04v1.14Z"/>
    <path class="cls-1" d="M906.4,319.54c0-2.35,1.97-4.32,4.29-4.32s4.27,1.97,4.27,4.32-1.95,4.34-4.27,4.34-4.29-1.99-4.29-4.34Zm7.3,0c0-1.76-1.38-3.25-3.01-3.25s-3.03,1.49-3.03,3.25,1.38,3.27,3.03,3.27,3.01-1.49,3.01-3.27Z"/>
    <path class="cls-1" d="M921.46,315.21v1.07c-1.87,0-3.2,1.15-3.2,2.77v4.63h-1.2v-8.28h1.2v1.62c.5-1.1,1.68-1.81,3.2-1.81Z"/>
    <path class="cls-1" d="M935.01,318.42v5.27h-1.2v-5.11c0-1.34-.78-2.29-1.91-2.29-1.31,0-2.24,.88-2.24,2.13v5.27h-1.2v-5.11c0-1.34-.78-2.29-1.9-2.29-1.31,0-2.24,.88-2.24,2.13v5.27h-1.2v-8.28h1.2v1.22c.42-.86,1.31-1.41,2.4-1.41,1.25,0,2.22,.69,2.67,1.76,.34-1.07,1.42-1.76,2.67-1.76,1.73,0,2.95,1.33,2.95,3.2Z"/>
    <path class="cls-1" d="M944.16,318.64v5.04h-1.2v-1.3c-.59,.98-1.82,1.49-2.91,1.49-1.75,0-3.03-1.01-3.03-2.64s1.47-2.75,3.25-2.75c.9,0,1.84,.19,2.69,.46v-.3c0-1.12-.45-2.4-2.24-2.4-.83,0-1.67,.37-2.42,.75l-.48-.98c1.18-.59,2.18-.8,2.98-.8,2.26,0,3.36,1.42,3.36,3.43Zm-1.2,2.45v-1.26c-.75-.21-1.6-.34-2.5-.34-1.23,0-2.27,.7-2.27,1.7s.9,1.63,2.06,1.63c1.09,0,2.38-.56,2.71-1.73Z"/>
    <path class="cls-1" d="M950.83,323.35c-.43,.34-.98,.53-1.54,.53-1.19,0-2.02-.88-2.02-2.11v-5.28h-1.3v-1.07h1.3v-2.27h1.2v2.27h2.03v1.07h-2.03v5.28c0,.61,.42,1.04,.9,1.04,.37,0,.69-.14,.86-.34l.59,.88Z"/>
    <path class="cls-1" d="M952.32,313.1c0-.42,.35-.78,.8-.78s.79,.37,.79,.78-.35,.8-.79,.8-.8-.37-.8-.8Zm.19,2.3h1.2v8.28h-1.2v-8.28Z"/>
    <path class="cls-1" d="M955.68,319.54c0-2.35,1.97-4.32,4.29-4.32s4.27,1.97,4.27,4.32-1.95,4.34-4.27,4.34-4.29-1.99-4.29-4.34Zm7.3,0c0-1.76-1.38-3.25-3.01-3.25s-3.03,1.49-3.03,3.25,1.38,3.27,3.03,3.27,3.01-1.49,3.01-3.27Z"/>
    <path class="cls-1" d="M973.26,318.42v5.27h-1.2v-5.11c0-1.34-.85-2.29-2.07-2.29-1.39,0-2.56,.98-2.56,2.13v5.27h-1.2v-8.28h1.2v1.33c.48-.88,1.55-1.52,2.72-1.52,1.83,0,3.1,1.33,3.1,3.2Z"/>
    <path class="cls-1" d="M975.21,325.71c1.75-1.78,2.71-3.67,2.71-6.28s-.96-4.5-2.71-6.29l.64-.67c2.14,1.79,3.35,4.19,3.35,6.96s-1.2,5.17-3.35,6.96l-.64-.69Z"/>
  </g>
  <path class="cls-8" d="M1180.42,293.1c0,3.17-2.57,5.74-5.74,5.74s-5.74-2.57-5.74-5.74,2.57-5.74,5.74-5.74,5.74,2.57,5.74,5.74Z"/>
  <path class="cls-12" d="M1180.42,312.8c0,3.17-2.57,5.74-5.74,5.74s-5.74-2.57-5.74-5.74,2.57-5.74,5.74-5.74,5.74,2.57,5.74,5.74Z"/>
  <path class="cls-12" d="M1180.42,332.51c0,3.17-2.57,5.74-5.74,5.74s-5.74-2.57-5.74-5.74,2.57-5.74,5.74-5.74,5.74,2.57,5.74,5.74Z"/>
</svg>