<?xml version="1.0" encoding="UTF-8"?>
<svg xmlns="http://www.w3.org/2000/svg" viewBox="0 0 171.39 36.47">
  <defs>
    <style>
      .cls-1 {
        fill: #fef3f3;
      }

      .cls-2 {
        fill: #24aae2;
      }

      .cls-3 {
        fill: #d5df28;
      }

      .cls-4 {
        fill: #f79424;
      }

      .cls-5 {
        fill: #bd202c;
      }

      .cls-6 {
        fill: #009648;
      }
    </style>
  </defs>
  <g id="Layer_1" data-name="Layer 1"/>
  <g id="Layer_2" data-name="Layer 2">
    <g id="Layer_1-2" data-name="Layer 1">
      <g>
        <path class="cls-2" d="M25.99,18.54c.59-4.34,.19-8.67-1.12-11.94-1.18-2.96-3.02-4.84-5.04-5.15-.22-.03-.43-.04-.64-.04-1.71,0-3.56,1.05-5.26,2.97l-1.32-.66c.91-1.08,1.87-1.93,2.87-2.56,1.23-.77,2.48-1.16,3.7-1.16,.29,0,.57,.02,.84,.06,2.57,.39,4.76,2.52,6.15,6.01,1.41,3.52,1.84,7.97,1.22,12.57l-1.41-.1Z"/>
        <path class="cls-5" d="M21.8,25.77c4.29-.87,8.24-2.68,10.9-5,2.4-2.09,3.56-4.45,3.18-6.47-.05-.22-.1-.42-.17-.61-.57-1.62-2.17-3.02-4.54-3.99l.18-1.46c1.31,.5,2.44,1.13,3.37,1.86,1.13,.91,1.91,1.95,2.32,3.11,.09,.26,.16,.54,.22,.81,.49,2.55-.81,5.32-3.64,7.8-2.86,2.49-6.91,4.37-11.45,5.31l-.37-1.37Z"/>
        <path class="cls-4" d="M26.69,35.72c-4.72,0-10.4-4.28-14.25-10.7l1.16-.8c2.25,3.76,5.27,6.89,8.33,8.63,1.68,.96,3.33,1.46,4.75,1.46,.91,0,1.72-.2,2.4-.6,.16-.09,.33-.21,.52-.36,1.34-1.07,2.13-3.05,2.26-5.6l1.44-.31c-.08,3.09-1.02,5.52-2.7,6.93l-.11,.08c-.22,.18-.45,.34-.69,.48-.91,.53-1.95,.79-3.1,.79Z"/>
        <path class="cls-3" d="M12.03,36.26c-1.45,0-2.71-.33-3.74-.97l-.14-.09c-.2-.13-.38-.27-.54-.41-1.99-1.7-2.71-4.67-2.04-8.37,.67-3.73,2.67-7.73,5.63-11.3l1.15,.83c-2.8,3.35-4.76,7.24-5.38,10.71-.57,3.14,0,5.71,1.55,7.04,.19,.16,.36,.28,.52,.38,.8,.5,1.8,.75,2.98,.75,.94,0,1.97-.16,3.05-.48l.77,1.25c-1.34,.43-2.62,.65-3.81,.65Z"/>
        <path class="cls-6" d="M2.33,21.84c-1.53-2.02-2.33-4.05-2.33-5.91,0-.45,.05-.89,.15-1.32,.06-.27,.14-.54,.24-.82,1.2-3.07,5.04-4.9,10.27-4.9,3.02,0,6.29,.62,9.48,1.81l-.41,1.36c-3.02-1.13-6.23-1.75-9.09-1.75-.98,0-1.92,.07-2.8,.21-3.15,.51-5.39,1.89-6.12,3.8-.07,.19-.14,.39-.18,.6-.38,1.67,.24,3.71,1.74,5.78l-.93,1.14Z"/>
      </g>
      <g>
        <g>
          <path class="cls-1" d="M44.69,24.32l.92-1.28c1.67,1.19,3.42,1.83,5.03,1.83,1.97,0,3.45-1,3.45-2.39,0-1.56-1.53-2.22-3.81-2.92-3.45-1-4.81-2.08-4.81-4.11,0-2.39,2.17-4.03,4.95-4.03,1.75,0,3.61,.61,5.14,1.61l-.86,1.33c-1.45-.89-2.95-1.36-4.28-1.36-1.75,0-3.22,.86-3.22,2.25,0,1.31,1.11,1.89,3.92,2.81,2.64,.83,4.7,1.75,4.7,4.25s-2.28,4.14-5.17,4.14c-2.03,0-4.25-.78-5.95-2.14Z"/>
          <path class="cls-1" d="M78.39,16.9v9.23h-1.72v-9c0-2.42-1.47-4.11-3.56-4.11-2.36,0-4.03,1.61-4.03,3.89v9.23h-1.72v-9c0-2.42-1.45-4.11-3.53-4.11-2.36,0-4.03,1.61-4.03,3.89v9.23h-1.72V11.76h1.72v2.11c.69-1.5,2.28-2.44,4.25-2.44,2.17,0,3.83,1.22,4.58,3.11,.61-1.89,2.5-3.11,4.72-3.11,2.95,0,5.03,2.28,5.03,5.47Z"/>
          <path class="cls-1" d="M92.95,17.37v8.75h-1.72v-2.28c-1.06,1.69-3.33,2.61-5.28,2.61-3,0-5.22-1.81-5.22-4.58s2.47-4.78,5.7-4.78c1.56,0,3.28,.36,4.81,.86v-.58c0-2.11-.94-4.42-4.17-4.42-1.45,0-2.95,.56-4.25,1.28l-.7-1.42c1.89-1,3.67-1.39,5.08-1.39,3.78,0,5.75,2.47,5.75,5.95Zm-1.72,4.25v-2.31c-1.36-.42-2.95-.72-4.56-.72-2.39,0-4.25,1.33-4.25,3.2s1.67,3.11,3.81,3.11c2,0,4.45-1.06,5-3.28Z"/>
          <path class="cls-1" d="M103.51,11.42v1.58c-3.25,0-5.56,2.11-5.56,5.08v8.03h-1.72V11.76h1.72v2.95c.81-1.95,2.92-3.28,5.56-3.28Z"/>
          <path class="cls-1" d="M112.49,25.54c-.75,.58-1.72,.92-2.67,.92-1.95,0-3.33-1.53-3.33-3.67V13.34h-2.33v-1.58h2.33v-3.95h1.72v3.95h3.61v1.58h-3.61v9.45c0,1.22,.78,2.08,1.72,2.08,.67,0,1.28-.25,1.67-.61l.89,1.28Z"/>
          <path class="cls-1" d="M113.49,18.93c0-4.39,2.97-7.5,7.17-7.5,1.89,0,3.64,.81,4.92,2.11l-.72,.69c-1.08-1.11-2.58-1.81-4.2-1.81-3.61,0-6.17,2.7-6.17,6.5s2.56,6.53,6.17,6.53c1.61,0,3.11-.69,4.22-1.81l.69,.69c-1.28,1.31-3.03,2.11-4.92,2.11-4.2,0-7.17-3.11-7.17-7.53Z"/>
          <path class="cls-1" d="M138.72,16.7v9.42h-1v-9.28c0-2.58-1.86-4.42-4.5-4.42s-4.58,1.89-4.58,4.53v9.17h-1V6.7h1v7.56c.72-1.72,2.47-2.83,4.72-2.83,3.14,0,5.36,2.19,5.36,5.28Z"/>
          <path class="cls-1" d="M152.92,17.37v8.75h-1v-2.33c-1.11,1.72-3.61,2.67-5.7,2.67-2.97,0-5.17-1.89-5.17-4.61s2.31-4.75,5.78-4.75c1.58,0,3.47,.42,5.08,1v-.72c0-2.42-1.25-4.95-4.67-4.95-1.45,0-3.06,.44-4.39,1.25l-.42-.86c1.58-.92,3.45-1.39,4.95-1.39,3.45,0,5.53,2.47,5.53,5.95Zm-1,4.25v-2.53c-1.47-.5-3.31-1-4.97-1-2.92,0-4.89,1.56-4.89,3.72s1.89,3.64,4.28,3.64c2.2,0,5.03-1.25,5.58-3.83Z"/>
          <path class="cls-1" d="M155.65,7.76c0-.44,.36-.83,.83-.83,.44,0,.83,.39,.83,.83,0,.47-.39,.83-.83,.83-.47,0-.83-.36-.83-.83Zm.33,4h1v14.37h-1V11.76Z"/>
          <path class="cls-1" d="M171.12,16.7v9.42h-1v-9.28c0-2.58-1.86-4.42-4.5-4.42s-4.58,1.89-4.58,4.53v9.17h-1V11.76h1v2.5c.72-1.72,2.47-2.83,4.72-2.83,3.14,0,5.36,2.19,5.36,5.28Z"/>
        </g>
        <g>
          <path class="cls-1" d="M78.33,34.74l.33-.39c.39,.37,.86,.63,1.5,.63,.71,0,1.07-.37,1.07-.77,0-.47-.43-.65-1.24-.83-.92-.2-1.5-.48-1.5-1.24,0-.7,.66-1.25,1.54-1.25,.68,0,1.19,.26,1.61,.63l-.32,.39c-.38-.35-.84-.56-1.32-.56-.57,0-.98,.36-.98,.76,0,.45,.45,.61,1.24,.79,.88,.2,1.5,.5,1.5,1.27,0,.7-.55,1.27-1.62,1.27-.75,0-1.35-.26-1.81-.7Z"/>
          <path class="cls-1" d="M87.59,33.26v2.1h-.5v-2.04c0-.54-.33-.91-.8-.91-.55,0-.94,.35-.94,.85v2.1h-.5v-2.04c0-.54-.33-.91-.79-.91-.55,0-.94,.35-.94,.85v2.1h-.5v-3.31h.5v.49c.17-.35,.55-.56,1-.56,.52,0,.93,.27,1.12,.7,.14-.43,.59-.7,1.12-.7,.72,0,1.23,.53,1.23,1.28Z"/>
          <path class="cls-1" d="M91.41,33.35v2.01h-.5v-.52c-.25,.39-.76,.59-1.22,.59-.73,0-1.26-.4-1.26-1.05s.62-1.1,1.36-1.1c.38,0,.77,.08,1.12,.19v-.12c0-.45-.19-.96-.94-.96-.35,0-.7,.15-1.01,.3l-.2-.39c.5-.24,.91-.32,1.24-.32,.94,0,1.4,.57,1.4,1.37Zm-.5,.98v-.51c-.31-.08-.67-.13-1.04-.13-.51,0-.95,.28-.95,.68s.37,.65,.86,.65c.45,0,1-.22,1.13-.69Z"/>
          <path class="cls-1" d="M94.31,31.99v.43c-.78,0-1.34,.46-1.34,1.11v1.85h-.5v-3.31h.5v.65c.21-.44,.7-.72,1.34-.72Z"/>
          <path class="cls-1" d="M96.77,35.23c-.18,.13-.41,.21-.64,.21-.5,0-.84-.35-.84-.84v-2.11h-.54v-.43h.54v-.91h.5v.91h.85v.43h-.85v2.11c0,.24,.17,.42,.37,.42,.15,0,.29-.06,.36-.13l.25,.35Z"/>
          <path class="cls-1" d="M99.43,30.98h.52v4.39h-.52v-4.39Z"/>
          <path class="cls-1" d="M103.93,33.26v2.1h-.5v-2.04c0-.54-.35-.91-.86-.91-.58,0-1.07,.39-1.07,.85v2.1h-.5v-3.31h.5v.53c.2-.35,.65-.61,1.14-.61,.76,0,1.3,.53,1.3,1.28Z"/>
          <path class="cls-1" d="M104.74,34.95l.26-.35c.39,.27,.79,.42,1.17,.42,.45,0,.76-.2,.76-.52,0-.36-.4-.47-.87-.6-.83-.23-1.16-.47-1.16-.94,0-.6,.52-.97,1.21-.97,.43,0,.87,.14,1.24,.37l-.24,.37c-.35-.21-.69-.31-1-.31-.39,0-.71,.17-.71,.49,0,.29,.25,.38,.9,.58,.55,.17,1.13,.35,1.13,.97s-.55,1-1.26,1c-.48,0-1.02-.17-1.43-.49Z"/>
          <path class="cls-1" d="M108.17,31.14c0-.17,.15-.31,.33-.31s.33,.15,.33,.31-.15,.32-.33,.32-.33-.15-.33-.32Zm.08,.92h.5v3.31h-.5v-3.31Z"/>
          <path class="cls-1" d="M112.95,32.06v2.95c0,.85-.7,1.45-1.7,1.45-.56,0-1.08-.19-1.4-.44l.22-.38c.27,.24,.68,.39,1.11,.39,.79,0,1.26-.38,1.26-1.02v-.54c-.27,.4-.71,.65-1.26,.65-.93,0-1.59-.65-1.59-1.57s.66-1.57,1.59-1.57c.55,0,.99,.24,1.26,.65v-.57h.5Zm-.5,1.49c0-.66-.48-1.14-1.16-1.14s-1.16,.47-1.16,1.14,.48,1.14,1.16,1.14,1.16-.47,1.16-1.14Z"/>
          <path class="cls-1" d="M116.95,33.26v2.1h-.5v-2.04c0-.54-.35-.91-.86-.91-.58,0-1.07,.39-1.07,.85v2.1h-.5v-4.47h.5v1.69c.2-.35,.65-.61,1.14-.61,.76,0,1.3,.53,1.3,1.28Z"/>
          <path class="cls-1" d="M119.72,35.23c-.18,.13-.41,.21-.64,.21-.5,0-.84-.35-.84-.84v-2.11h-.54v-.43h.54v-.91h.5v.91h.85v.43h-.85v2.11c0,.24,.17,.42,.37,.42,.15,0,.29-.06,.36-.13l.25,.35Z"/>
          <path class="cls-1" d="M120.22,34.95l.26-.35c.39,.27,.79,.42,1.17,.42,.45,0,.76-.2,.76-.52,0-.36-.4-.47-.87-.6-.83-.23-1.16-.47-1.16-.94,0-.6,.52-.97,1.21-.97,.43,0,.87,.14,1.24,.37l-.24,.37c-.35-.21-.69-.31-1-.31-.39,0-.71,.17-.71,.49,0,.29,.25,.38,.9,.58,.55,.17,1.13,.35,1.13,.97s-.55,1-1.26,1c-.48,0-1.02-.17-1.43-.49Z"/>
          <path class="cls-1" d="M123.72,35.09c0-.18,.16-.34,.37-.34,.19,0,.35,.16,.35,.34,0,.19-.16,.35-.35,.35-.21,0-.37-.16-.37-.35Z"/>
          <path class="cls-1" d="M127.49,30.98h2.11c.74,0,1.26,.45,1.26,1.09,0,.47-.24,.73-.66,.97,.53,.26,.83,.65,.83,1.13,0,.7-.57,1.2-1.36,1.2h-2.19v-4.39Zm1.97,1.86c.51,0,.87-.29,.87-.7s-.36-.7-.87-.7h-1.45v1.41h1.45Zm.08,2.08c.57,0,.97-.34,.97-.81s-.4-.81-.97-.81h-1.53v1.62h1.53Z"/>
          <path class="cls-1" d="M134.57,34.62l.31,.31c-.3,.31-.91,.51-1.39,.51-.92,0-1.75-.72-1.75-1.74s.78-1.72,1.71-1.72c1.04,0,1.64,.75,1.64,1.91h-2.83c.07,.65,.55,1.12,1.23,1.12,.41,0,.88-.17,1.09-.4Zm-2.31-1.15h2.33c-.07-.59-.43-1.05-1.12-1.05-.61,0-1.11,.42-1.2,1.05Z"/>
          <path class="cls-1" d="M137.66,35.23c-.18,.13-.41,.21-.64,.21-.5,0-.84-.35-.84-.84v-2.11h-.54v-.43h.54v-.91h.5v.91h.85v.43h-.85v2.11c0,.24,.17,.42,.37,.42,.15,0,.29-.06,.36-.13l.25,.35Z"/>
          <path class="cls-1" d="M140.13,35.23c-.18,.13-.41,.21-.64,.21-.5,0-.84-.35-.84-.84v-2.11h-.54v-.43h.54v-.91h.5v.91h.85v.43h-.85v2.11c0,.24,.17,.42,.37,.42,.15,0,.29-.06,.36-.13l.25,.35Z"/>
          <path class="cls-1" d="M143.49,34.62l.31,.31c-.3,.31-.91,.51-1.39,.51-.92,0-1.75-.72-1.75-1.74s.77-1.72,1.7-1.72c1.04,0,1.64,.75,1.64,1.91h-2.83c.07,.65,.55,1.12,1.23,1.12,.41,0,.88-.17,1.09-.4Zm-2.31-1.15h2.33c-.07-.59-.43-1.05-1.12-1.05-.61,0-1.11,.42-1.2,1.05Z"/>
          <path class="cls-1" d="M146.7,31.99v.43c-.78,0-1.34,.46-1.34,1.11v1.85h-.5v-3.31h.5v.65c.21-.44,.7-.72,1.34-.72Z"/>
          <path class="cls-1" d="M151.66,33.74l1.19,1.62h-.59l-1.16-1.58h-1.22v1.58h-.52v-4.39h1.86c.95,0,1.69,.58,1.69,1.41,0,.69-.52,1.21-1.25,1.36Zm-1.79-.43h1.25c.75,0,1.26-.35,1.26-.93s-.51-.93-1.26-.93h-1.25v1.87Z"/>
          <path class="cls-1" d="M156.32,34.62l.31,.31c-.3,.31-.91,.51-1.39,.51-.92,0-1.75-.72-1.75-1.74s.77-1.72,1.7-1.72c1.04,0,1.64,.75,1.64,1.91h-2.83c.07,.65,.55,1.12,1.23,1.12,.41,0,.88-.17,1.09-.4Zm-2.31-1.15h2.33c-.07-.59-.43-1.05-1.12-1.05-.61,0-1.11,.42-1.2,1.05Z"/>
          <path class="cls-1" d="M157.44,34.95l.26-.35c.39,.27,.79,.42,1.17,.42,.45,0,.76-.2,.76-.52,0-.36-.4-.47-.87-.6-.83-.23-1.16-.47-1.16-.94,0-.6,.52-.97,1.21-.97,.43,0,.87,.14,1.24,.37l-.24,.37c-.35-.21-.69-.31-1-.31-.39,0-.71,.17-.71,.49,0,.29,.25,.38,.9,.58,.55,.17,1.13,.35,1.13,.97s-.55,1-1.26,1c-.48,0-1.02-.17-1.43-.49Z"/>
          <path class="cls-1" d="M163.89,32.06v3.31h-.5v-.53c-.2,.35-.65,.61-1.14,.61-.76,0-1.3-.53-1.3-1.28v-2.1h.5v2.04c0,.54,.35,.91,.86,.91,.58,0,1.07-.39,1.07-.85v-2.1h.5Z"/>
          <path class="cls-1" d="M164.91,30.9h.5v4.47h-.5v-4.47Z"/>
          <path class="cls-1" d="M168.19,35.23c-.18,.13-.41,.21-.64,.21-.5,0-.84-.35-.84-.84v-2.11h-.54v-.43h.54v-.91h.5v.91h.85v.43h-.85v2.11c0,.24,.17,.42,.37,.42,.15,0,.29-.06,.36-.13l.25,.35Z"/>
          <path class="cls-1" d="M168.69,34.95l.26-.35c.39,.27,.79,.42,1.17,.42,.45,0,.76-.2,.76-.52,0-.36-.4-.47-.87-.6-.83-.23-1.16-.47-1.16-.94,0-.6,.52-.97,1.21-.97,.43,0,.87,.14,1.24,.37l-.24,.37c-.35-.21-.69-.31-1-.31-.39,0-.71,.17-.71,.49,0,.29,.25,.38,.9,.58,.55,.17,1.13,.35,1.13,.97s-.55,1-1.26,1c-.48,0-1.02-.17-1.43-.49Z"/>
        </g>
      </g>
    </g>
  </g>
</svg>