<?xml version="1.0" encoding="UTF-8"?>
<svg xmlns="http://www.w3.org/2000/svg" viewBox="0 0 290.12 171.55">
  <defs>
    <style>
      .cls-1 {
        fill: #fff;
      }

      .cls-2 {
        fill: #24aae2;
      }

      .cls-3 {
        fill: #d5df28;
      }

      .cls-4 {
        fill: #f79424;
      }

      .cls-5 {
        fill: #bd202c;
      }

      .cls-6 {
        fill: #009648;
      }
    </style>
  </defs>
  <g id="Layer_1" data-name="Layer 1"/>
  <g id="Layer_2" data-name="Layer 2">
    <g id="Layer_1-2" data-name="Layer 1">
      <g>
        <g>
          <path class="cls-1" d="M0,143.67l2.1-2.93c3.83,2.74,7.84,4.21,11.54,4.21,4.53,0,7.91-2.3,7.91-5.48,0-3.57-3.51-5.1-8.74-6.7-7.91-2.3-11.03-4.78-11.03-9.44,0-5.48,4.97-9.25,11.35-9.25,4.02,0,8.29,1.4,11.8,3.7l-1.98,3.06c-3.32-2.04-6.76-3.12-9.82-3.12-4.02,0-7.4,1.98-7.4,5.17,0,3,2.55,4.34,8.99,6.44,6.06,1.91,10.78,4.02,10.78,9.76s-5.23,9.5-11.86,9.5c-4.66,0-9.76-1.79-13.65-4.91Z"/>
          <path class="cls-1" d="M77.35,126.64v21.17h-3.95v-20.66c0-5.55-3.38-9.44-8.16-9.44-5.42,0-9.25,3.7-9.25,8.93v21.17h-3.95v-20.66c0-5.55-3.32-9.44-8.1-9.44-5.42,0-9.25,3.7-9.25,8.93v21.17h-3.95v-32.97h3.95v4.85c1.59-3.44,5.23-5.61,9.76-5.61,4.97,0,8.8,2.81,10.52,7.14,1.4-4.34,5.74-7.14,10.84-7.14,6.76,0,11.54,5.23,11.54,12.56Z"/>
          <path class="cls-1" d="M110.76,127.73v20.09h-3.95v-5.23c-2.42,3.89-7.65,5.99-12.12,5.99-6.89,0-11.99-4.15-11.99-10.52s5.67-10.97,13.07-10.97c3.57,0,7.52,.83,11.03,1.98v-1.34c0-4.85-2.17-10.14-9.56-10.14-3.32,0-6.76,1.28-9.76,2.93l-1.59-3.25c4.34-2.3,8.42-3.19,11.67-3.19,8.67,0,13.2,5.67,13.2,13.65Zm-3.95,9.76v-5.29c-3.12-.96-6.76-1.66-10.46-1.66-5.48,0-9.76,3.06-9.76,7.33s3.83,7.14,8.74,7.14c4.59,0,10.2-2.42,11.48-7.52Z"/>
          <path class="cls-1" d="M134.99,114.08v3.63c-7.46,0-12.75,4.85-12.75,11.67v18.43h-3.95v-32.97h3.95v6.76c1.85-4.46,6.7-7.52,12.75-7.52Z"/>
          <path class="cls-1" d="M155.58,146.48c-1.72,1.34-3.95,2.1-6.12,2.1-4.46,0-7.65-3.51-7.65-8.42v-21.68h-5.36v-3.63h5.36v-9.06h3.95v9.06h8.29v3.63h-8.29v21.68c0,2.81,1.79,4.78,3.95,4.78,1.53,0,2.93-.57,3.83-1.4l2.04,2.93Z"/>
          <path class="cls-1" d="M157.88,131.3c0-10.08,6.82-17.22,16.45-17.22,4.34,0,8.35,1.85,11.29,4.85l-1.66,1.59c-2.49-2.55-5.93-4.14-9.63-4.14-8.29,0-14.16,6.18-14.16,14.92s5.87,14.99,14.16,14.99c3.7,0,7.14-1.59,9.69-4.14l1.59,1.59c-2.93,3-6.95,4.85-11.29,4.85-9.63,0-16.45-7.14-16.45-17.28Z"/>
          <path class="cls-1" d="M215.78,126.2v21.62h-2.29v-21.3c0-5.93-4.27-10.14-10.33-10.14s-10.52,4.34-10.52,10.39v21.04h-2.3v-44.57h2.3v17.34c1.66-3.95,5.67-6.5,10.84-6.5,7.21,0,12.31,5.04,12.31,12.12Z"/>
          <path class="cls-1" d="M248.36,127.73v20.09h-2.3v-5.36c-2.55,3.95-8.29,6.12-13.07,6.12-6.82,0-11.86-4.34-11.86-10.59s5.29-10.9,13.26-10.9c3.63,0,7.97,.96,11.67,2.29v-1.66c0-5.55-2.87-11.35-10.71-11.35-3.32,0-7.01,1.02-10.08,2.87l-.96-1.98c3.63-2.1,7.91-3.19,11.35-3.19,7.91,0,12.69,5.67,12.69,13.65Zm-2.3,9.76v-5.8c-3.38-1.15-7.59-2.3-11.41-2.3-6.7,0-11.22,3.57-11.22,8.54s4.34,8.35,9.82,8.35c5.04,0,11.54-2.87,12.82-8.8Z"/>
          <path class="cls-1" d="M254.61,105.66c0-1.02,.83-1.91,1.91-1.91,1.02,0,1.91,.89,1.91,1.91,0,1.08-.89,1.91-1.91,1.91-1.08,0-1.91-.83-1.91-1.91Zm.76,9.18h2.3v32.97h-2.3v-32.97Z"/>
          <path class="cls-1" d="M290.12,126.2v21.62h-2.29v-21.3c0-5.93-4.27-10.14-10.33-10.14s-10.52,4.34-10.52,10.39v21.04h-2.3v-32.97h2.3v5.74c1.66-3.95,5.67-6.5,10.84-6.5,7.21,0,12.31,5.04,12.31,12.12Z"/>
        </g>
        <g>
          <path class="cls-1" d="M76.51,167.59l.75-.9c.89,.85,1.98,1.45,3.45,1.45,1.62,0,2.45-.85,2.45-1.76,0-1.07-1-1.5-2.83-1.91-2.11-.47-3.45-1.1-3.45-2.85,0-1.61,1.5-2.88,3.52-2.88,1.56,0,2.73,.59,3.69,1.44l-.74,.9c-.87-.81-1.92-1.29-3.02-1.29-1.3,0-2.25,.82-2.25,1.75,0,1.04,1.04,1.41,2.83,1.82,2.01,.46,3.45,1.14,3.45,2.92,0,1.6-1.26,2.91-3.71,2.91-1.73,0-3.09-.6-4.15-1.6Z"/>
          <path class="cls-1" d="M97.75,164.2v4.83h-1.15v-4.68c0-1.23-.75-2.1-1.82-2.1-1.26,0-2.15,.81-2.15,1.95v4.83h-1.15v-4.68c0-1.23-.75-2.1-1.82-2.1-1.26,0-2.14,.81-2.14,1.95v4.83h-1.15v-7.59h1.15v1.12c.4-.79,1.26-1.29,2.3-1.29,1.2,0,2.13,.63,2.56,1.62,.32-.98,1.36-1.62,2.56-1.62,1.65,0,2.82,1.22,2.82,2.94Z"/>
          <path class="cls-1" d="M106.52,164.4v4.62h-1.15v-1.19c-.57,.9-1.75,1.37-2.79,1.37-1.67,0-2.9-.92-2.9-2.42s1.41-2.52,3.11-2.52c.86,0,1.76,.18,2.57,.43v-.28c0-1.03-.43-2.2-2.14-2.2-.8,0-1.59,.34-2.31,.69l-.46-.9c1.13-.54,2.08-.73,2.85-.73,2.16,0,3.22,1.31,3.22,3.14Zm-1.15,2.25v-1.16c-.72-.19-1.53-.31-2.39-.31-1.18,0-2.17,.65-2.17,1.56s.86,1.5,1.98,1.5c1.04,0,2.28-.51,2.59-1.58Z"/>
          <path class="cls-1" d="M113.19,161.26v.98c-1.79,0-3.06,1.06-3.06,2.54v4.24h-1.15v-7.59h1.15v1.48c.47-1.01,1.61-1.66,3.06-1.66Z"/>
          <path class="cls-1" d="M118.83,168.72c-.41,.31-.93,.48-1.47,.48-1.13,0-1.93-.81-1.93-1.94v-4.84h-1.24v-.98h1.24v-2.08h1.15v2.08h1.95v.98h-1.95v4.84c0,.56,.4,.95,.86,.95,.35,0,.66-.13,.83-.31l.57,.81Z"/>
          <path class="cls-1" d="M124.94,158.94h1.2v10.08h-1.2v-10.08Z"/>
          <path class="cls-1" d="M135.26,164.2v4.83h-1.15v-4.68c0-1.23-.81-2.1-1.98-2.1-1.33,0-2.45,.89-2.45,1.95v4.83h-1.15v-7.59h1.15v1.22c.46-.81,1.49-1.39,2.6-1.39,1.75,0,2.97,1.22,2.97,2.94Z"/>
          <path class="cls-1" d="M137.11,168.07l.6-.81c.9,.63,1.81,.95,2.68,.95,1.04,0,1.75-.47,1.75-1.19,0-.82-.92-1.09-1.99-1.38-1.92-.53-2.65-1.07-2.65-2.16,0-1.38,1.2-2.23,2.77-2.23,.98,0,1.99,.32,2.83,.85l-.55,.85c-.8-.48-1.58-.72-2.28-.72-.89,0-1.62,.38-1.62,1.12,0,.66,.58,.87,2.05,1.32,1.27,.38,2.59,.79,2.59,2.23s-1.26,2.29-2.9,2.29c-1.1,0-2.33-.4-3.28-1.13Z"/>
          <path class="cls-1" d="M144.99,159.33c0-.38,.34-.72,.77-.72s.75,.34,.75,.72-.34,.73-.75,.73-.77-.34-.77-.73Zm.18,2.11h1.15v7.59h-1.15v-7.59Z"/>
          <path class="cls-1" d="M155.95,161.44v6.78c0,1.95-1.61,3.33-3.89,3.33-1.29,0-2.48-.43-3.2-1.01l.51-.87c.61,.56,1.56,.9,2.54,.9,1.82,0,2.9-.87,2.9-2.35v-1.23c-.61,.92-1.62,1.48-2.88,1.48-2.13,0-3.65-1.5-3.65-3.61s1.52-3.6,3.65-3.6c1.26,0,2.27,.56,2.88,1.48v-1.31h1.15Zm-1.15,3.42c0-1.53-1.1-2.61-2.67-2.61s-2.65,1.09-2.65,2.61,1.1,2.63,2.65,2.63,2.67-1.09,2.67-2.63Z"/>
          <path class="cls-1" d="M165.13,164.2v4.83h-1.15v-4.68c0-1.23-.81-2.1-1.98-2.1-1.33,0-2.45,.89-2.45,1.95v4.83h-1.15v-10.26h1.15v3.89c.46-.81,1.49-1.39,2.6-1.39,1.75,0,2.97,1.22,2.97,2.94Z"/>
          <path class="cls-1" d="M171.5,168.72c-.41,.31-.93,.48-1.47,.48-1.13,0-1.93-.81-1.93-1.94v-4.84h-1.24v-.98h1.24v-2.08h1.15v2.08h1.95v.98h-1.95v4.84c0,.56,.4,.95,.86,.95,.35,0,.66-.13,.83-.31l.57,.81Z"/>
          <path class="cls-1" d="M172.65,168.07l.6-.81c.9,.63,1.81,.95,2.68,.95,1.04,0,1.75-.47,1.75-1.19,0-.82-.92-1.09-1.99-1.38-1.92-.53-2.65-1.07-2.65-2.16,0-1.38,1.2-2.23,2.77-2.23,.98,0,1.99,.32,2.83,.85l-.55,.85c-.8-.48-1.58-.72-2.28-.72-.89,0-1.62,.38-1.62,1.12,0,.66,.58,.87,2.05,1.32,1.27,.38,2.59,.79,2.59,2.23s-1.26,2.29-2.9,2.29c-1.1,0-2.33-.4-3.28-1.13Z"/>
          <path class="cls-1" d="M180.68,168.4c0-.41,.37-.78,.84-.78,.44,0,.81,.37,.81,.78,0,.44-.37,.81-.81,.81-.47,0-.84-.37-.84-.81Z"/>
          <path class="cls-1" d="M189.33,158.94h4.83c1.7,0,2.9,1.04,2.9,2.51,0,1.07-.55,1.69-1.5,2.22,1.21,.59,1.92,1.5,1.92,2.6,0,1.62-1.3,2.76-3.13,2.76h-5.01v-10.08Zm4.52,4.27c1.17,0,1.99-.68,1.99-1.62s-.83-1.61-1.99-1.61h-3.32v3.23h3.32Zm.18,4.77c1.3,0,2.22-.78,2.22-1.86s-.92-1.86-2.22-1.86h-3.51v3.73h3.51Z"/>
          <path class="cls-1" d="M205.57,167.31l.7,.72c-.69,.72-2.08,1.17-3.19,1.17-2.11,0-4.01-1.66-4.01-3.99s1.78-3.95,3.91-3.95c2.39,0,3.75,1.73,3.75,4.39h-6.48c.17,1.48,1.26,2.57,2.82,2.57,.93,0,2.01-.4,2.5-.91Zm-5.3-2.64h5.33c-.15-1.37-1-2.42-2.57-2.42-1.41,0-2.54,.95-2.76,2.42Z"/>
          <path class="cls-1" d="M212.67,168.72c-.41,.31-.93,.48-1.47,.48-1.13,0-1.93-.81-1.93-1.94v-4.84h-1.24v-.98h1.24v-2.08h1.15v2.08h1.95v.98h-1.95v4.84c0,.56,.4,.95,.86,.95,.35,0,.66-.13,.83-.31l.57,.81Z"/>
          <path class="cls-1" d="M218.34,168.72c-.41,.31-.93,.48-1.47,.48-1.13,0-1.93-.81-1.93-1.94v-4.84h-1.24v-.98h1.24v-2.08h1.15v2.08h1.95v.98h-1.95v4.84c0,.56,.4,.95,.86,.95,.35,0,.66-.13,.83-.31l.57,.81Z"/>
          <path class="cls-1" d="M226.03,167.31l.7,.72c-.69,.72-2.08,1.17-3.19,1.17-2.11,0-4.01-1.66-4.01-3.99s1.78-3.95,3.91-3.95c2.39,0,3.75,1.73,3.75,4.39h-6.48c.17,1.48,1.26,2.57,2.82,2.57,.93,0,2.01-.4,2.5-.91Zm-5.3-2.64h5.33c-.15-1.37-1-2.42-2.57-2.42-1.41,0-2.54,.95-2.76,2.42Z"/>
          <path class="cls-1" d="M233.4,161.26v.98c-1.79,0-3.06,1.06-3.06,2.54v4.24h-1.15v-7.59h1.15v1.48c.47-1.01,1.61-1.66,3.06-1.66Z"/>
          <path class="cls-1" d="M244.77,165.3l2.73,3.73h-1.36l-2.67-3.63h-2.79v3.63h-1.2v-10.08h4.27c2.18,0,3.88,1.33,3.88,3.23,0,1.59-1.2,2.79-2.87,3.13Zm-4.09-.98h2.87c1.71,0,2.88-.79,2.88-2.14s-1.17-2.14-2.88-2.14h-2.87v4.29Z"/>
          <path class="cls-1" d="M255.47,167.31l.71,.72c-.69,.72-2.08,1.17-3.19,1.17-2.11,0-4.01-1.66-4.01-3.99s1.78-3.95,3.91-3.95c2.39,0,3.75,1.73,3.75,4.39h-6.48c.17,1.48,1.26,2.57,2.82,2.57,.93,0,2.01-.4,2.5-.91Zm-5.3-2.64h5.33c-.15-1.37-1-2.42-2.57-2.42-1.41,0-2.54,.95-2.76,2.42Z"/>
          <path class="cls-1" d="M258.05,168.07l.6-.81c.9,.63,1.81,.95,2.68,.95,1.04,0,1.75-.47,1.75-1.19,0-.82-.92-1.09-1.99-1.38-1.92-.53-2.65-1.07-2.65-2.16,0-1.38,1.2-2.23,2.77-2.23,.98,0,1.99,.32,2.83,.85l-.55,.85c-.8-.48-1.58-.72-2.28-.72-.89,0-1.62,.38-1.62,1.12,0,.66,.58,.87,2.05,1.32,1.27,.38,2.59,.79,2.59,2.23s-1.26,2.29-2.9,2.29c-1.1,0-2.33-.4-3.28-1.13Z"/>
          <path class="cls-1" d="M272.85,161.44v7.59h-1.15v-1.22c-.46,.81-1.49,1.39-2.6,1.39-1.75,0-2.97-1.22-2.97-2.94v-4.83h1.15v4.68c0,1.23,.81,2.1,1.98,2.1,1.33,0,2.45-.9,2.45-1.95v-4.83h1.15Z"/>
          <path class="cls-1" d="M275.2,158.77h1.15v10.26h-1.15v-10.26Z"/>
          <path class="cls-1" d="M282.72,168.72c-.41,.31-.93,.48-1.47,.48-1.13,0-1.93-.81-1.93-1.94v-4.84h-1.24v-.98h1.24v-2.08h1.15v2.08h1.95v.98h-1.95v4.84c0,.56,.4,.95,.86,.95,.35,0,.66-.13,.83-.31l.57,.81Z"/>
          <path class="cls-1" d="M283.87,168.07l.6-.81c.9,.63,1.81,.95,2.68,.95,1.04,0,1.75-.47,1.75-1.19,0-.82-.92-1.09-1.99-1.38-1.92-.53-2.65-1.07-2.65-2.16,0-1.38,1.2-2.23,2.77-2.23,.98,0,1.99,.32,2.83,.85l-.55,.85c-.8-.48-1.58-.72-2.28-.72-.89,0-1.62,.38-1.62,1.12,0,.66,.58,.87,2.05,1.32,1.27,.38,2.59,.79,2.59,2.23s-1.26,2.29-2.9,2.29c-1.1,0-2.33-.4-3.28-1.13Z"/>
        </g>
        <g>
          <path class="cls-2" d="M162.3,42.39c1.35-9.93,.43-19.83-2.55-27.29-2.7-6.77-6.9-11.06-11.52-11.77-.5-.07-.97-.1-1.46-.1-3.91,0-8.14,2.4-12.02,6.78l-3.01-1.5c2.07-2.46,4.27-4.42,6.57-5.85,2.82-1.77,5.66-2.66,8.46-2.66,.67,0,1.3,.05,1.92,.14,5.88,.88,10.88,5.76,14.07,13.75,3.22,8.05,4.2,18.21,2.78,28.73l-3.23-.23Z"/>
          <path class="cls-5" d="M152.74,58.91c9.8-1.99,18.84-6.13,24.92-11.43,5.49-4.79,8.14-10.18,7.28-14.78-.11-.51-.23-.97-.38-1.39-1.3-3.7-4.96-6.9-10.38-9.11l.42-3.33c3,1.14,5.59,2.57,7.71,4.26,2.59,2.07,4.38,4.46,5.31,7.1,.21,.6,.38,1.22,.5,1.86,1.11,5.84-1.84,12.17-8.32,17.82-6.53,5.7-15.8,9.99-26.19,12.13l-.85-3.13Z"/>
          <path class="cls-4" d="M163.9,81.66c-10.79,0-23.78-9.79-32.58-24.46l2.66-1.84c5.13,8.6,12.04,15.75,19.05,19.72,3.85,2.19,7.61,3.34,10.87,3.34,2.08,0,3.92-.46,5.49-1.37,.37-.21,.76-.48,1.18-.82,3.07-2.45,4.87-6.96,5.16-12.81l3.29-.71c-.18,7.05-2.33,12.62-6.17,15.85l-.25,.19c-.51,.41-1.04,.77-1.59,1.09-2.08,1.2-4.46,1.81-7.1,1.81Z"/>
          <path class="cls-3" d="M130.39,82.9c-3.31,0-6.19-.75-8.56-2.23l-.31-.2c-.46-.31-.86-.61-1.23-.94-4.54-3.88-6.19-10.67-4.66-19.13,1.54-8.53,6.1-17.66,12.87-25.83l2.63,1.91c-6.4,7.66-10.88,16.55-12.31,24.49-1.29,7.18,0,13.05,3.55,16.09,.44,.36,.81,.64,1.18,.86,1.82,1.14,4.12,1.72,6.81,1.72,2.16,0,4.5-.37,6.98-1.11l1.75,2.86c-3.06,.99-5.98,1.49-8.7,1.49Z"/>
          <path class="cls-6" d="M108.23,49.93c-3.5-4.61-5.34-9.25-5.34-13.52,0-1.02,.11-2.04,.33-3.01,.13-.62,.32-1.24,.56-1.87,2.73-7.02,11.51-11.21,23.47-11.21,6.91,0,14.38,1.43,21.66,4.13l-.93,3.1c-6.9-2.58-14.25-3.99-20.79-3.99-2.24,0-4.4,.16-6.4,.49-7.21,1.16-12.31,4.32-14,8.68-.17,.43-.31,.9-.42,1.38-.86,3.82,.55,8.47,3.98,13.23l-2.12,2.61Z"/>
        </g>
      </g>
    </g>
  </g>
</svg>